,_id,ANO_EJE,MES_EJE,TIPO_GOBIERNO,TIPO_GOBIERNO_NOMBRE,SECTOR,SECTOR_NOMBRE,PLIEGO,PLIEGO_NOMBRE,SEC_EJEC,EJECUTORA,EJECUTORA_NOMBRE,DEPARTAMENTO_EJECUTORA,DEPARTAMENTO_EJECUTORA_NOMBRE,PROVINCIA_EJECUTORA,PROVINCIA_EJECUTORA_NOMBRE,DISTRITO_EJECUTORA,DISTRITO_EJECUTORA_NOMBRE,SEC_FUNC,PROGRAMA_PPTO,PROGRAMA_PPTO_NOMBRE,TIPO_ACT_PROY,PRODUCTO_PROYECTO,PRODUCTO_PROYECTO_NOMBRE,ACTIVIDAD_ACCION_OBRA,ACTIVIDAD_ACCION_OBRA_NOMBRE,FUNCION,FUNCION_NOMBRE,DIVISION_FUNCIONAL,DIVISION_FUNCIONAL_NOMBRE,GRUPO_FUNCIONAL,GRUPO_FUNCIONAL_NOMBRE,META,FINALIDAD,META_NOMBRE,DEPARTAMENTO_META,DEPARTAMENTO_META_NOMBRE,FUENTE_FINANC,FUENTE_FINANC_NOMBRE,RUBRO,RUBRO_NOMBRE,TIPO_RECURSO,TIPO_RECURSO_NOMBRE,CATEG_GASTO,CATEG_GASTO_NOMBRE,TIPO_TRANSACCION,GENERICA,GENERICA_NOMBRE,SUBGENERICA,SUBGENERICA_NOMBRE,SUBGENERICA_DET,SUBGENERICA_DET_NOMBRE,ESPECIFICA,ESPECIFICA_NOMBRE,ESPECIFICA_DET,ESPECIFICA_DET_NOMBRE,MONTO_PIA,MONTO_PIM,MONTO_CERTIFICADO,MONTO_COMPROMETIDO_ANUAL,MONTO_COMPROMETIDO,MONTO_DEVENGADO,MONTO_GIRADO
0,1,2016,0,M,GOBIERNOS LOCALES,00,GOBIERNO LOCAL,000,MUNICIPALIDAD PROVINCIAL DE CHACHAPOYAS,300001,001,MUNICIPALIDAD PROVINCIAL DE CHACHAPOYAS,01,AMAZONAS,01,CHACHAPOYAS,01,CHACHAPOYAS,57,9001,ACCIONES CENTRALES,3,3999999,SIN PRODUCTO,5000001,PLANEAMIENTO Y PRESUPUESTO,03,"PLANEAMIENTO, GESTION Y RESERVA DE CONTINGENCIA",004,PLANEAMIENTO GUBERNAMENTAL,0005,PLANEAMIENTO INSTITUCIONAL,00001,0000576,DESARROLLAR EL PLANEAMIENTO DE LA GESTION,01,AMAZONAS,2,RECURSOS DIRECTAMENTE RECAUDADOS,09,RECURSOS DIRECTAMENTE RECAUDADOS,0,NORMAL,5,GASTO CORRIENTE,2,3,BIENES Y SERVICIOS,2,CONTRATACION DE SERVICIOS,7,SERVICIOS PROFESIONALES Y TECNICOS,11,OTROS SERVICIOS,99,SERVICIOS DIVERSOS,0,6100,0,0,0,0,0
1,2,2016,0,M,GOBIERNOS LOCALES,00,GOBIERNO LOCAL,000,MUNICIPALIDAD PROVINCIAL DE CHACHAPOYAS,300001,001,MUNICIPALIDAD PROVINCIAL DE CHACHAPOYAS,01,AMAZONAS,01,CHACHAPOYAS,01,CHACHAPOYAS,57,9001,ACCIONES CENTRALES,3,3999999,SIN PRODUCTO,5000001,PLANEAMIENTO Y PRESUPUESTO,03,"PLANEAMIENTO, GESTION Y RESERVA DE CONTINGENCIA",004,PLANEAMIENTO GUBERNAMENTAL,0005,PLANEAMIENTO INSTITUCIONAL,00001,0000576,DESARROLLAR EL PLANEAMIENTO DE LA GESTION,01,AMAZONAS,5,RECURSOS DETERMINADOS,07,FONDO DE COMPENSACION MUNICIPAL,0,NORMAL,5,GASTO CORRIENTE,2,1,PERSONAL Y OBLIGACIONES SOCIALES,1,RETRIBUCIONES Y COMPLEMENTOS EN EFECTIVO,1,PERSONAL ADMINISTRATIVO,1,PERSONAL ADMINISTRATIVO,3,PERSONAL CON CONTRATO A PLAZO FIJO (REGIMEN LABORAL PUBLICO),167220,135660,0,0,0,0,0
2,3,2016,0,M,GOBIERNOS LOCALES,00,GOBIERNO LOCAL,000,MUNICIPALIDAD PROVINCIAL DE CHACHAPOYAS,300001,001,MUNICIPALIDAD PROVINCIAL DE CHACHAPOYAS,01,AMAZONAS,01,CHACHAPOYAS,01,CHACHAPOYAS,57,9001,ACCIONES CENTRALES,3,3999999,SIN PRODUCTO,5000001,PLANEAMIENTO Y PRESUPUESTO,03,"PLANEAMIENTO, GESTION Y RESERVA DE CONTINGENCIA",004,PLANEAMIENTO GUBERNAMENTAL,0005,PLANEAMIENTO INSTITUCIONAL,00001,0000576,DESARROLLAR EL PLANEAMIENTO DE LA GESTION,01,AMAZONAS,5,RECURSOS DETERMINADOS,07,FONDO DE COMPENSACION MUNICIPAL,0,NORMAL,5,GASTO CORRIENTE,2,1,PERSONAL Y OBLIGACIONES SOCIALES,1,RETRIBUCIONES Y COMPLEMENTOS EN EFECTIVO,9,GASTOS VARIABLES Y OCASIONALES,1,"ESCOLARIDAD, AGUINALDOS Y GRATIFICACIONES",2,AGUINALDOS,4578,4578,0,0,0,0,0
3,4,2016,0,M,GOBIERNOS LOCALES,00,GOBIERNO LOCAL,000,MUNICIPALIDAD PROVINCIAL DE CHACHAPOYAS,300001,001,MUNICIPALIDAD PROVINCIAL DE CHACHAPOYAS,01,AMAZONAS,01,CHACHAPOYAS,01,CHACHAPOYAS,57,9001,ACCIONES CENTRALES,3,3999999,SIN PRODUCTO,5000001,PLANEAMIENTO Y PRESUPUESTO,03,"PLANEAMIENTO, GESTION Y RESERVA DE CONTINGENCIA",004,PLANEAMIENTO GUBERNAMENTAL,0005,PLANEAMIENTO INSTITUCIONAL,00001,0000576,DESARROLLAR EL PLANEAMIENTO DE LA GESTION,01,AMAZONAS,5,RECURSOS DETERMINADOS,07,FONDO DE COMPENSACION MUNICIPAL,0,NORMAL,5,GASTO CORRIENTE,2,1,PERSONAL Y OBLIGACIONES SOCIALES,1,RETRIBUCIONES Y COMPLEMENTOS EN EFECTIVO,9,GASTOS VARIABLES Y OCASIONALES,1,"ESCOLARIDAD, AGUINALDOS Y GRATIFICACIONES",3,BONIFICACION POR ESCOLARIDAD,2800,2800,0,0,0,0,0
4,5,2016,0,M,GOBIERNOS LOCALES,00,GOBIERNO LOCAL,000,MUNICIPALIDAD PROVINCIAL DE CHACHAPOYAS,300001,001,MUNICIPALIDAD PROVINCIAL DE CHACHAPOYAS,01,AMAZONAS,01,CHACHAPOYAS,01,CHACHAPOYAS,57,9001,ACCIONES CENTRALES,3,3999999,SIN PRODUCTO,5000001,PLANEAMIENTO Y PRESUPUESTO,03,"PLANEAMIENTO, GESTION Y RESERVA DE CONTINGENCIA",004,PLANEAMIENTO GUBERNAMENTAL,0005,PLANEAMIENTO INSTITUCIONAL,00001,0000576,DESARROLLAR EL PLANEAMIENTO DE LA GESTION,01,AMAZONAS,5,RECURSOS DETERMINADOS,07,FONDO DE COMPENSACION MUNICIPAL,0,NORMAL,5,GASTO CORRIENTE,2,1,PERSONAL Y OBLIGACIONES SOCIALES,1,RETRIBUCIONES Y COMPLEMENTOS EN EFECTIVO,9,GASTOS VARIABLES Y OCASIONALES,3,OTROS GASTOS VARIABLES Y OCASIONALES,99,OTRAS OCASIONALES,7922,7922,0,0,0,0,0
5,6,2016,0,M,GOBIERNOS LOCALES,00,GOBIERNO LOCAL,000,MUNICIPALIDAD PROVINCIAL DE CHACHAPOYAS,300001,001,MUNICIPALIDAD PROVINCIAL DE CHACHAPOYAS,01,AMAZONAS,01,CHACHAPOYAS,01,CHACHAPOYAS,57,9001,ACCIONES CENTRALES,3,3999999,SIN PRODUCTO,5000001,PLANEAMIENTO Y PRESUPUESTO,03,"PLANEAMIENTO, GESTION Y RESERVA DE CONTINGENCIA",004,PLANEAMIENTO GUBERNAMENTAL,0005,PLANEAMIENTO INSTITUCIONAL,00001,0000576,DESARROLLAR EL PLANEAMIENTO DE LA GESTION,01,AMAZONAS,5,RECURSOS DETERMINADOS,07,FONDO DE COMPENSACION MUNICIPAL,0,NORMAL,5,GASTO CORRIENTE,2,1,PERSONAL Y OBLIGACIONES SOCIALES,3,CONTRIBUCIONES A LA SEGURIDAD SOCIAL,1,OBLIGACIONES DEL EMPLEADOR,1,OBLIGACIONES DEL EMPLEADOR,5,CONTRIBUCIONES A ESSALUD,15050,15050,0,0,0,0,0
6,7,2016,0,M,GOBIERNOS LOCALES,00,GOBIERNO LOCAL,000,MUNICIPALIDAD PROVINCIAL DE CHACHAPOYAS,300001,001,MUNICIPALIDAD PROVINCIAL DE CHACHAPOYAS,01,AMAZONAS,01,CHACHAPOYAS,01,CHACHAPOYAS,57,9001,ACCIONES CENTRALES,3,3999999,SIN PRODUCTO,5000001,PLANEAMIENTO Y PRESUPUESTO,03,"PLANEAMIENTO, GESTION Y RESERVA DE CONTINGENCIA",004,PLANEAMIENTO GUBERNAMENTAL,0005,PLANEAMIENTO INSTITUCIONAL,00001,0000576,DESARROLLAR EL PLANEAMIENTO DE LA GESTION,01,AMAZONAS,5,RECURSOS DETERMINADOS,07,FONDO DE COMPENSACION MUNICIPAL,0,NORMAL,5,GASTO CORRIENTE,2,3,BIENES Y SERVICIOS,1,COMPRA DE BIENES,5,MATERIALES Y  UTILES,1,DE OFICINA,1,REPUESTOS Y ACCESORIOS,0,400,0,0,0,0,0
7,8,2016,0,M,GOBIERNOS LOCALES,00,GOBIERNO LOCAL,000,MUNICIPALIDAD PROVINCIAL DE CHACHAPOYAS,300001,001,MUNICIPALIDAD PROVINCIAL DE CHACHAPOYAS,01,AMAZONAS,01,CHACHAPOYAS,01,CHACHAPOYAS,57,9001,ACCIONES CENTRALES,3,3999999,SIN PRODUCTO,5000001,PLANEAMIENTO Y PRESUPUESTO,03,"PLANEAMIENTO, GESTION Y RESERVA DE CONTINGENCIA",004,PLANEAMIENTO GUBERNAMENTAL,0005,PLANEAMIENTO INSTITUCIONAL,00001,0000576,DESARROLLAR EL PLANEAMIENTO DE LA GESTION,01,AMAZONAS,5,RECURSOS DETERMINADOS,07,FONDO DE COMPENSACION MUNICIPAL,0,NORMAL,5,GASTO CORRIENTE,2,3,BIENES Y SERVICIOS,1,COMPRA DE BIENES,9,MATERIALES Y UTILES DE ENSEANZA,1,MATERIALES Y UTILES DE ENSEANZA,1,"LIBROS, TEXTOS Y OTROS MATERIALES IMPRESOS",220,0,0,0,0,0,0
8,9,2016,0,M,GOBIERNOS LOCALES,00,GOBIERNO LOCAL,000,MUNICIPALIDAD PROVINCIAL DE CHACHAPOYAS,300001,001,MUNICIPALIDAD PROVINCIAL DE CHACHAPOYAS,01,AMAZONAS,01,CHACHAPOYAS,01,CHACHAPOYAS,57,9001,ACCIONES CENTRALES,3,3999999,SIN PRODUCTO,5000001,PLANEAMIENTO Y PRESUPUESTO,03,"PLANEAMIENTO, GESTION Y RESERVA DE CONTINGENCIA",004,PLANEAMIENTO GUBERNAMENTAL,0005,PLANEAMIENTO INSTITUCIONAL,00001,0000576,DESARROLLAR EL PLANEAMIENTO DE LA GESTION,01,AMAZONAS,5,RECURSOS DETERMINADOS,07,FONDO DE COMPENSACION MUNICIPAL,0,NORMAL,5,GASTO CORRIENTE,2,3,BIENES Y SERVICIOS,1,COMPRA DE BIENES,99,COMPRA DE OTROS BIENES,1,COMPRA DE OTROS BIENES,99,OTROS BIENES,11218,2796,0,0,0,0,0
9,10,2016,0,M,GOBIERNOS LOCALES,00,GOBIERNO LOCAL,000,MUNICIPALIDAD PROVINCIAL DE CHACHAPOYAS,300001,001,MUNICIPALIDAD PROVINCIAL DE CHACHAPOYAS,01,AMAZONAS,01,CHACHAPOYAS,01,CHACHAPOYAS,57,9001,ACCIONES CENTRALES,3,3999999,SIN PRODUCTO,5000001,PLANEAMIENTO Y PRESUPUESTO,03,"PLANEAMIENTO, GESTION Y RESERVA DE CONTINGENCIA",004,PLANEAMIENTO GUBERNAMENTAL,0005,PLANEAMIENTO INSTITUCIONAL,00001,0000576,DESARROLLAR EL PLANEAMIENTO DE LA GESTION,01,AMAZONAS,5,RECURSOS DETERMINADOS,07,FONDO DE COMPENSACION MUNICIPAL,0,NORMAL,5,GASTO CORRIENTE,2,3,BIENES Y SERVICIOS,2,CONTRATACION DE SERVICIOS,1,VIAJES,2,VIAJES DOMESTICOS,1,PASAJES Y GASTOS DE TRANSPORTE,480,450,0,0,0,0,0
10,11,2016,0,M,GOBIERNOS LOCALES,00,GOBIERNO LOCAL,000,MUNICIPALIDAD PROVINCIAL DE CHACHAPOYAS,300001,001,MUNICIPALIDAD PROVINCIAL DE CHACHAPOYAS,01,AMAZONAS,01,CHACHAPOYAS,01,CHACHAPOYAS,57,9001,ACCIONES CENTRALES,3,3999999,SIN PRODUCTO,5000001,PLANEAMIENTO Y PRESUPUESTO,03,"PLANEAMIENTO, GESTION Y RESERVA DE CONTINGENCIA",004,PLANEAMIENTO GUBERNAMENTAL,0005,PLANEAMIENTO INSTITUCIONAL,00001,0000576,DESARROLLAR EL PLANEAMIENTO DE LA GESTION,01,AMAZONAS,5,RECURSOS DETERMINADOS,07,FONDO DE COMPENSACION MUNICIPAL,0,NORMAL,5,GASTO CORRIENTE,2,3,BIENES Y SERVICIOS,2,CONTRATACION DE SERVICIOS,1,VIAJES,2,VIAJES DOMESTICOS,2,VIATICOS Y ASIGNACIONES POR COMISION DE SERVICIO,1560,1600,0,0,0,0,0
11,12,2016,0,M,GOBIERNOS LOCALES,00,GOBIERNO LOCAL,000,MUNICIPALIDAD PROVINCIAL DE CHACHAPOYAS,300001,001,MUNICIPALIDAD PROVINCIAL DE CHACHAPOYAS,01,AMAZONAS,01,CHACHAPOYAS,01,CHACHAPOYAS,57,9001,ACCIONES CENTRALES,3,3999999,SIN PRODUCTO,5000001,PLANEAMIENTO Y PRESUPUESTO,03,"PLANEAMIENTO, GESTION Y RESERVA DE CONTINGENCIA",004,PLANEAMIENTO GUBERNAMENTAL,0005,PLANEAMIENTO INSTITUCIONAL,00001,0000576,DESARROLLAR EL PLANEAMIENTO DE LA GESTION,01,AMAZONAS,5,RECURSOS DETERMINADOS,07,FONDO DE COMPENSACION MUNICIPAL,0,NORMAL,5,GASTO CORRIENTE,2,3,BIENES Y SERVICIOS,2,CONTRATACION DE SERVICIOS,2,"SERVICIOS BASICOS, COMUNICACIONES, PUBLICIDAD Y DIFUSION",2,SERVICIOS DE TELEFONIA E INTERNET,2,SERVICIO DE TELEFONIA FIJA,8960,8960,0,0,0,0,0
12,13,2016,0,M,GOBIERNOS LOCALES,00,GOBIERNO LOCAL,000,MUNICIPALIDAD PROVINCIAL DE CHACHAPOYAS,300001,001,MUNICIPALIDAD PROVINCIAL DE CHACHAPOYAS,01,AMAZONAS,01,CHACHAPOYAS,01,CHACHAPOYAS,57,9001,ACCIONES CENTRALES,3,3999999,SIN PRODUCTO,5000001,PLANEAMIENTO Y PRESUPUESTO,03,"PLANEAMIENTO, GESTION Y RESERVA DE CONTINGENCIA",004,PLANEAMIENTO GUBERNAMENTAL,0005,PLANEAMIENTO INSTITUCIONAL,00001,0000576,DESARROLLAR EL PLANEAMIENTO DE LA GESTION,01,AMAZONAS,5,RECURSOS DETERMINADOS,07,FONDO DE COMPENSACION MUNICIPAL,0,NORMAL,5,GASTO CORRIENTE,2,3,BIENES Y SERVICIOS,2,CONTRATACION DE SERVICIOS,2,"SERVICIOS BASICOS, COMUNICACIONES, PUBLICIDAD Y DIFUSION",4,"SERVICIO DE PUBLICIDAD, IMPRESIONES,DIFUSION E IMAGEN INSTITUCIONAL",4,"SERVICIO DE IMPRESIONES, ENCUADERNACION Y EMPASTADO",560,0,0,0,0,0,0
13,14,2016,0,M,GOBIERNOS LOCALES,00,GOBIERNO LOCAL,000,MUNICIPALIDAD PROVINCIAL DE CHACHAPOYAS,300001,001,MUNICIPALIDAD PROVINCIAL DE CHACHAPOYAS,01,AMAZONAS,01,CHACHAPOYAS,01,CHACHAPOYAS,57,9001,ACCIONES CENTRALES,3,3999999,SIN PRODUCTO,5000001,PLANEAMIENTO Y PRESUPUESTO,03,"PLANEAMIENTO, GESTION Y RESERVA DE CONTINGENCIA",004,PLANEAMIENTO GUBERNAMENTAL,0005,PLANEAMIENTO INSTITUCIONAL,00001,0000576,DESARROLLAR EL PLANEAMIENTO DE LA GESTION,01,AMAZONAS,5,RECURSOS DETERMINADOS,07,FONDO DE COMPENSACION MUNICIPAL,0,NORMAL,5,GASTO CORRIENTE,2,3,BIENES Y SERVICIOS,2,CONTRATACION DE SERVICIOS,7,SERVICIOS PROFESIONALES Y TECNICOS,11,OTROS SERVICIOS,99,SERVICIOS DIVERSOS,10280,32085,0,0,0,0,0
14,15,2016,0,M,GOBIERNOS LOCALES,00,GOBIERNO LOCAL,000,MUNICIPALIDAD PROVINCIAL DE CHACHAPOYAS,300001,001,MUNICIPALIDAD PROVINCIAL DE CHACHAPOYAS,01,AMAZONAS,01,CHACHAPOYAS,01,CHACHAPOYAS,57,9001,ACCIONES CENTRALES,3,3999999,SIN PRODUCTO,5000001,PLANEAMIENTO Y PRESUPUESTO,03,"PLANEAMIENTO, GESTION Y RESERVA DE CONTINGENCIA",004,PLANEAMIENTO GUBERNAMENTAL,0005,PLANEAMIENTO INSTITUCIONAL,00001,0000576,DESARROLLAR EL PLANEAMIENTO DE LA GESTION,01,AMAZONAS,5,RECURSOS DETERMINADOS,07,FONDO DE COMPENSACION MUNICIPAL,0,NORMAL,6,GASTO DE CAPITAL,2,6,ADQUISICION DE ACTIVOS NO FINANCIEROS,3,"ADQUISICION DE VEHICULOS, MAQUINARIAS Y OTROS",2,"ADQUISICION DE MAQUINARIAS, EQUIPO Y MOBILIARIO",3,ADQUISICION DE EQUIPOS INFORMATICOS Y DE COMUNICACIONES,1,EQUIPOS COMPUTACIONALES Y PERIFERICOS,0,370,0,0,0,0,0
15,16,2016,0,M,GOBIERNOS LOCALES,00,GOBIERNO LOCAL,000,MUNICIPALIDAD PROVINCIAL DE CHACHAPOYAS,300001,001,MUNICIPALIDAD PROVINCIAL DE CHACHAPOYAS,01,AMAZONAS,01,CHACHAPOYAS,01,CHACHAPOYAS,57,9001,ACCIONES CENTRALES,3,3999999,SIN PRODUCTO,5000001,PLANEAMIENTO Y PRESUPUESTO,03,"PLANEAMIENTO, GESTION Y RESERVA DE CONTINGENCIA",004,PLANEAMIENTO GUBERNAMENTAL,0005,PLANEAMIENTO INSTITUCIONAL,00001,0000576,DESARROLLAR EL PLANEAMIENTO DE LA GESTION,01,AMAZONAS,5,RECURSOS DETERMINADOS,07,FONDO DE COMPENSACION MUNICIPAL,0,NORMAL,6,GASTO DE CAPITAL,2,6,ADQUISICION DE ACTIVOS NO FINANCIEROS,3,"ADQUISICION DE VEHICULOS, MAQUINARIAS Y OTROS",2,"ADQUISICION DE MAQUINARIAS, EQUIPO Y MOBILIARIO",9,ADQUISICION DE MAQUINARIA Y EQUIPO DIVERSOS,4,ELECTRICIDAD Y ELECTRONICA,0,56,0,0,0,0,0
16,17,2016,0,M,GOBIERNOS LOCALES,00,GOBIERNO LOCAL,000,MUNICIPALIDAD PROVINCIAL DE CHACHAPOYAS,300001,001,MUNICIPALIDAD PROVINCIAL DE CHACHAPOYAS,01,AMAZONAS,01,CHACHAPOYAS,01,CHACHAPOYAS,57,9001,ACCIONES CENTRALES,3,3999999,SIN PRODUCTO,5000001,PLANEAMIENTO Y PRESUPUESTO,03,"PLANEAMIENTO, GESTION Y RESERVA DE CONTINGENCIA",004,PLANEAMIENTO GUBERNAMENTAL,0005,PLANEAMIENTO INSTITUCIONAL,00001,0000576,DESARROLLAR EL PLANEAMIENTO DE LA GESTION,01,AMAZONAS,5,RECURSOS DETERMINADOS,08,IMPUESTOS MUNICIPALES,0,NORMAL,5,GASTO CORRIENTE,2,3,BIENES Y SERVICIOS,1,COMPRA DE BIENES,5,MATERIALES Y  UTILES,1,DE OFICINA,1,REPUESTOS Y ACCESORIOS,0,1060,0,0,0,0,0
17,18,2016,0,M,GOBIERNOS LOCALES,00,GOBIERNO LOCAL,000,MUNICIPALIDAD PROVINCIAL DE CHACHAPOYAS,300001,001,MUNICIPALIDAD PROVINCIAL DE CHACHAPOYAS,01,AMAZONAS,01,CHACHAPOYAS,01,CHACHAPOYAS,57,9001,ACCIONES CENTRALES,3,3999999,SIN PRODUCTO,5000001,PLANEAMIENTO Y PRESUPUESTO,03,"PLANEAMIENTO, GESTION Y RESERVA DE CONTINGENCIA",004,PLANEAMIENTO GUBERNAMENTAL,0005,PLANEAMIENTO INSTITUCIONAL,00001,0000576,DESARROLLAR EL PLANEAMIENTO DE LA GESTION,01,AMAZONAS,5,RECURSOS DETERMINADOS,08,IMPUESTOS MUNICIPALES,0,NORMAL,5,GASTO CORRIENTE,2,3,BIENES Y SERVICIOS,1,COMPRA DE BIENES,99,COMPRA DE OTROS BIENES,1,COMPRA DE OTROS BIENES,99,OTROS BIENES,0,262,0,0,0,0,0
18,19,2016,0,M,GOBIERNOS LOCALES,00,GOBIERNO LOCAL,000,MUNICIPALIDAD PROVINCIAL DE CHACHAPOYAS,300001,001,MUNICIPALIDAD PROVINCIAL DE CHACHAPOYAS,01,AMAZONAS,01,CHACHAPOYAS,01,CHACHAPOYAS,57,9001,ACCIONES CENTRALES,3,3999999,SIN PRODUCTO,5000001,PLANEAMIENTO Y PRESUPUESTO,03,"PLANEAMIENTO, GESTION Y RESERVA DE CONTINGENCIA",004,PLANEAMIENTO GUBERNAMENTAL,0005,PLANEAMIENTO INSTITUCIONAL,00001,0000576,DESARROLLAR EL PLANEAMIENTO DE LA GESTION,01,AMAZONAS,5,RECURSOS DETERMINADOS,08,IMPUESTOS MUNICIPALES,0,NORMAL,5,GASTO CORRIENTE,2,3,BIENES Y SERVICIOS,2,CONTRATACION DE SERVICIOS,1,VIAJES,2,VIAJES DOMESTICOS,1,PASAJES Y GASTOS DE TRANSPORTE,0,300,0,0,0,0,0
19,20,2016,0,M,GOBIERNOS LOCALES,00,GOBIERNO LOCAL,000,MUNICIPALIDAD PROVINCIAL DE CHACHAPOYAS,300001,001,MUNICIPALIDAD PROVINCIAL DE CHACHAPOYAS,01,AMAZONAS,01,CHACHAPOYAS,01,CHACHAPOYAS,57,9001,ACCIONES CENTRALES,3,3999999,SIN PRODUCTO,5000001,PLANEAMIENTO Y PRESUPUESTO,03,"PLANEAMIENTO, GESTION Y RESERVA DE CONTINGENCIA",004,PLANEAMIENTO GUBERNAMENTAL,0005,PLANEAMIENTO INSTITUCIONAL,00001,0000576,DESARROLLAR EL PLANEAMIENTO DE LA GESTION,01,AMAZONAS,5,RECURSOS DETERMINADOS,08,IMPUESTOS MUNICIPALES,0,NORMAL,5,GASTO CORRIENTE,2,3,BIENES Y SERVICIOS,2,CONTRATACION DE SERVICIOS,1,VIAJES,2,VIAJES DOMESTICOS,2,VIATICOS Y ASIGNACIONES POR COMISION DE SERVICIO,0,640,0,0,0,0,0
20,21,2016,0,M,GOBIERNOS LOCALES,00,GOBIERNO LOCAL,000,MUNICIPALIDAD PROVINCIAL DE CHACHAPOYAS,300001,001,MUNICIPALIDAD PROVINCIAL DE CHACHAPOYAS,01,AMAZONAS,01,CHACHAPOYAS,01,CHACHAPOYAS,57,9001,ACCIONES CENTRALES,3,3999999,SIN PRODUCTO,5000001,PLANEAMIENTO Y PRESUPUESTO,03,"PLANEAMIENTO, GESTION Y RESERVA DE CONTINGENCIA",004,PLANEAMIENTO GUBERNAMENTAL,0005,PLANEAMIENTO INSTITUCIONAL,00001,0000576,DESARROLLAR EL PLANEAMIENTO DE LA GESTION,01,AMAZONAS,5,RECURSOS DETERMINADOS,08,IMPUESTOS MUNICIPALES,0,NORMAL,5,GASTO CORRIENTE,2,3,BIENES Y SERVICIOS,2,CONTRATACION DE SERVICIOS,2,"SERVICIOS BASICOS, COMUNICACIONES, PUBLICIDAD Y DIFUSION",4,"SERVICIO DE PUBLICIDAD, IMPRESIONES,DIFUSION E IMAGEN INSTITUCIONAL",4,"SERVICIO DE IMPRESIONES, ENCUADERNACION Y EMPASTADO",0,1000,0,0,0,0,0
21,22,2016,0,M,GOBIERNOS LOCALES,00,GOBIERNO LOCAL,000,MUNICIPALIDAD PROVINCIAL DE CHACHAPOYAS,300001,001,MUNICIPALIDAD PROVINCIAL DE CHACHAPOYAS,01,AMAZONAS,01,CHACHAPOYAS,01,CHACHAPOYAS,57,9001,ACCIONES CENTRALES,3,3999999,SIN PRODUCTO,5000001,PLANEAMIENTO Y PRESUPUESTO,03,"PLANEAMIENTO, GESTION Y RESERVA DE CONTINGENCIA",004,PLANEAMIENTO GUBERNAMENTAL,0005,PLANEAMIENTO INSTITUCIONAL,00001,0000576,DESARROLLAR EL PLANEAMIENTO DE LA GESTION,01,AMAZONAS,5,RECURSOS DETERMINADOS,08,IMPUESTOS MUNICIPALES,0,NORMAL,5,GASTO CORRIENTE,2,3,BIENES Y SERVICIOS,2,CONTRATACION DE SERVICIOS,7,SERVICIOS PROFESIONALES Y TECNICOS,11,OTROS SERVICIOS,99,SERVICIOS DIVERSOS,0,11300,0,0,0,0,0
22,23,2016,0,M,GOBIERNOS LOCALES,00,GOBIERNO LOCAL,000,MUNICIPALIDAD PROVINCIAL DE CHACHAPOYAS,300001,001,MUNICIPALIDAD PROVINCIAL DE CHACHAPOYAS,01,AMAZONAS,01,CHACHAPOYAS,01,CHACHAPOYAS,57,9001,ACCIONES CENTRALES,3,3999999,SIN PRODUCTO,5000001,PLANEAMIENTO Y PRESUPUESTO,03,"PLANEAMIENTO, GESTION Y RESERVA DE CONTINGENCIA",004,PLANEAMIENTO GUBERNAMENTAL,0005,PLANEAMIENTO INSTITUCIONAL,00001,0000576,DESARROLLAR EL PLANEAMIENTO DE LA GESTION,01,AMAZONAS,5,RECURSOS DETERMINADOS,08,IMPUESTOS MUNICIPALES,0,NORMAL,5,GASTO CORRIENTE,2,3,BIENES Y SERVICIOS,2,CONTRATACION DE SERVICIOS,8,CONTRATO ADMINISTRATIVO DE SERVICIOS,1,CONTRATO ADMINISTRATIVO DE SERVICIOS,1,CONTRATO ADMINISTRATIVO DE SERVICIOS,81162,121656,0,0,0,0,0
23,24,2016,0,M,GOBIERNOS LOCALES,00,GOBIERNO LOCAL,000,MUNICIPALIDAD PROVINCIAL DE CHACHAPOYAS,300001,001,MUNICIPALIDAD PROVINCIAL DE CHACHAPOYAS,01,AMAZONAS,01,CHACHAPOYAS,01,CHACHAPOYAS,57,9001,ACCIONES CENTRALES,3,3999999,SIN PRODUCTO,5000001,PLANEAMIENTO Y PRESUPUESTO,03,"PLANEAMIENTO, GESTION Y RESERVA DE CONTINGENCIA",004,PLANEAMIENTO GUBERNAMENTAL,0005,PLANEAMIENTO INSTITUCIONAL,00001,0000576,DESARROLLAR EL PLANEAMIENTO DE LA GESTION,01,AMAZONAS,5,RECURSOS DETERMINADOS,08,IMPUESTOS MUNICIPALES,0,NORMAL,5,GASTO CORRIENTE,2,3,BIENES Y SERVICIOS,2,CONTRATACION DE SERVICIOS,8,CONTRATO ADMINISTRATIVO DE SERVICIOS,1,CONTRATO ADMINISTRATIVO DE SERVICIOS,2,CONTRIBUCIONES A ESSALUD DE C.A.S.,7128,10714,0,0,0,0,0
24,25,2016,0,M,GOBIERNOS LOCALES,00,GOBIERNO LOCAL,000,MUNICIPALIDAD PROVINCIAL DE CHACHAPOYAS,300001,001,MUNICIPALIDAD PROVINCIAL DE CHACHAPOYAS,01,AMAZONAS,01,CHACHAPOYAS,01,CHACHAPOYAS,57,9001,ACCIONES CENTRALES,3,3999999,SIN PRODUCTO,5000001,PLANEAMIENTO Y PRESUPUESTO,03,"PLANEAMIENTO, GESTION Y RESERVA DE CONTINGENCIA",004,PLANEAMIENTO GUBERNAMENTAL,0005,PLANEAMIENTO INSTITUCIONAL,00001,0000576,DESARROLLAR EL PLANEAMIENTO DE LA GESTION,01,AMAZONAS,5,RECURSOS DETERMINADOS,08,IMPUESTOS MUNICIPALES,0,NORMAL,6,GASTO DE CAPITAL,2,6,ADQUISICION DE ACTIVOS NO FINANCIEROS,3,"ADQUISICION DE VEHICULOS, MAQUINARIAS Y OTROS",2,"ADQUISICION DE MAQUINARIAS, EQUIPO Y MOBILIARIO",3,ADQUISICION DE EQUIPOS INFORMATICOS Y DE COMUNICACIONES,1,EQUIPOS COMPUTACIONALES Y PERIFERICOS,0,1383,0,0,0,0,0
25,26,2016,0,M,GOBIERNOS LOCALES,00,GOBIERNO LOCAL,000,MUNICIPALIDAD PROVINCIAL DE CHACHAPOYAS,300001,001,MUNICIPALIDAD PROVINCIAL DE CHACHAPOYAS,01,AMAZONAS,01,CHACHAPOYAS,01,CHACHAPOYAS,58,9001,ACCIONES CENTRALES,3,3999999,SIN PRODUCTO,5000002,CONDUCCION Y ORIENTACION SUPERIOR,03,"PLANEAMIENTO, GESTION Y RESERVA DE CONTINGENCIA",006,GESTION,0007,DIRECCION Y SUPERVISION SUPERIOR,00001,0001109,NORMAR Y FISCALIZAR,01,AMAZONAS,2,RECURSOS DIRECTAMENTE RECAUDADOS,09,RECURSOS DIRECTAMENTE RECAUDADOS,0,NORMAL,5,GASTO CORRIENTE,2,1,PERSONAL Y OBLIGACIONES SOCIALES,1,RETRIBUCIONES Y COMPLEMENTOS EN EFECTIVO,9,GASTOS VARIABLES Y OCASIONALES,3,OTROS GASTOS VARIABLES Y OCASIONALES,3,COMPENSACION VACACIONAL (VACACIONES TRUNCAS),20280,20280,0,0,0,0,0
26,27,2016,0,M,GOBIERNOS LOCALES,00,GOBIERNO LOCAL,000,MUNICIPALIDAD PROVINCIAL DE CHACHAPOYAS,300001,001,MUNICIPALIDAD PROVINCIAL DE CHACHAPOYAS,01,AMAZONAS,01,CHACHAPOYAS,01,CHACHAPOYAS,58,9001,ACCIONES CENTRALES,3,3999999,SIN PRODUCTO,5000002,CONDUCCION Y ORIENTACION SUPERIOR,03,"PLANEAMIENTO, GESTION Y RESERVA DE CONTINGENCIA",006,GESTION,0007,DIRECCION Y SUPERVISION SUPERIOR,00001,0001109,NORMAR Y FISCALIZAR,01,AMAZONAS,2,RECURSOS DIRECTAMENTE RECAUDADOS,09,RECURSOS DIRECTAMENTE RECAUDADOS,0,NORMAL,5,GASTO CORRIENTE,2,1,PERSONAL Y OBLIGACIONES SOCIALES,1,RETRIBUCIONES Y COMPLEMENTOS EN EFECTIVO,10,DIETAS,1,DIETAS,2,DIETAS DE REGIDORES Y CONSEJEROS,202176,202176,0,0,0,0,0
27,28,2016,0,M,GOBIERNOS LOCALES,00,GOBIERNO LOCAL,000,MUNICIPALIDAD PROVINCIAL DE CHACHAPOYAS,300001,001,MUNICIPALIDAD PROVINCIAL DE CHACHAPOYAS,01,AMAZONAS,01,CHACHAPOYAS,01,CHACHAPOYAS,58,9001,ACCIONES CENTRALES,3,3999999,SIN PRODUCTO,5000002,CONDUCCION Y ORIENTACION SUPERIOR,03,"PLANEAMIENTO, GESTION Y RESERVA DE CONTINGENCIA",006,GESTION,0007,DIRECCION Y SUPERVISION SUPERIOR,00001,0001109,NORMAR Y FISCALIZAR,01,AMAZONAS,2,RECURSOS DIRECTAMENTE RECAUDADOS,09,RECURSOS DIRECTAMENTE RECAUDADOS,0,NORMAL,5,GASTO CORRIENTE,2,3,BIENES Y SERVICIOS,2,CONTRATACION DE SERVICIOS,1,VIAJES,2,VIAJES DOMESTICOS,1,PASAJES Y GASTOS DE TRANSPORTE,0,3000,0,0,0,0,0
28,29,2016,0,M,GOBIERNOS LOCALES,00,GOBIERNO LOCAL,000,MUNICIPALIDAD PROVINCIAL DE CHACHAPOYAS,300001,001,MUNICIPALIDAD PROVINCIAL DE CHACHAPOYAS,01,AMAZONAS,01,CHACHAPOYAS,01,CHACHAPOYAS,58,9001,ACCIONES CENTRALES,3,3999999,SIN PRODUCTO,5000002,CONDUCCION Y ORIENTACION SUPERIOR,03,"PLANEAMIENTO, GESTION Y RESERVA DE CONTINGENCIA",006,GESTION,0007,DIRECCION Y SUPERVISION SUPERIOR,00001,0001109,NORMAR Y FISCALIZAR,01,AMAZONAS,2,RECURSOS DIRECTAMENTE RECAUDADOS,09,RECURSOS DIRECTAMENTE RECAUDADOS,0,NORMAL,5,GASTO CORRIENTE,2,3,BIENES Y SERVICIOS,2,CONTRATACION DE SERVICIOS,1,VIAJES,2,VIAJES DOMESTICOS,2,VIATICOS Y ASIGNACIONES POR COMISION DE SERVICIO,0,7000,0,0,0,0,0
29,30,2016,0,M,GOBIERNOS LOCALES,00,GOBIERNO LOCAL,000,MUNICIPALIDAD PROVINCIAL DE CHACHAPOYAS,300001,001,MUNICIPALIDAD PROVINCIAL DE CHACHAPOYAS,01,AMAZONAS,01,CHACHAPOYAS,01,CHACHAPOYAS,58,9001,ACCIONES CENTRALES,3,3999999,SIN PRODUCTO,5000002,CONDUCCION Y ORIENTACION SUPERIOR,03,"PLANEAMIENTO, GESTION Y RESERVA DE CONTINGENCIA",006,GESTION,0007,DIRECCION Y SUPERVISION SUPERIOR,00001,0001109,NORMAR Y FISCALIZAR,01,AMAZONAS,2,RECURSOS DIRECTAMENTE RECAUDADOS,09,RECURSOS DIRECTAMENTE RECAUDADOS,0,NORMAL,5,GASTO CORRIENTE,2,3,BIENES Y SERVICIOS,2,CONTRATACION DE SERVICIOS,2,"SERVICIOS BASICOS, COMUNICACIONES, PUBLICIDAD Y DIFUSION",4,"SERVICIO DE PUBLICIDAD, IMPRESIONES,DIFUSION E IMAGEN INSTITUCIONAL",1,SERVICIO DE PUBLICIDAD,0,2300,0,0,0,0,0
30,31,2016,0,M,GOBIERNOS LOCALES,00,GOBIERNO LOCAL,000,MUNICIPALIDAD PROVINCIAL DE CHACHAPOYAS,300001,001,MUNICIPALIDAD PROVINCIAL DE CHACHAPOYAS,01,AMAZONAS,01,CHACHAPOYAS,01,CHACHAPOYAS,58,9001,ACCIONES CENTRALES,3,3999999,SIN PRODUCTO,5000002,CONDUCCION Y ORIENTACION SUPERIOR,03,"PLANEAMIENTO, GESTION Y RESERVA DE CONTINGENCIA",006,GESTION,0007,DIRECCION Y SUPERVISION SUPERIOR,00001,0001109,NORMAR Y FISCALIZAR,01,AMAZONAS,2,RECURSOS DIRECTAMENTE RECAUDADOS,09,RECURSOS DIRECTAMENTE RECAUDADOS,0,NORMAL,5,GASTO CORRIENTE,2,3,BIENES Y SERVICIOS,2,CONTRATACION DE SERVICIOS,4,"SERVICIO DE MANTENIMIENTO, ACONDICIONAMIENTO Y  REPARACIONES",1,"SERVICIO DE MANTENIMIENTO, ACONDICIONAMIENTO Y  REPARACIONES",4,DE MOBILIARIO Y SIMILARES,0,70,0,0,0,0,0
31,32,2016,0,M,GOBIERNOS LOCALES,00,GOBIERNO LOCAL,000,MUNICIPALIDAD PROVINCIAL DE CHACHAPOYAS,300001,001,MUNICIPALIDAD PROVINCIAL DE CHACHAPOYAS,01,AMAZONAS,01,CHACHAPOYAS,01,CHACHAPOYAS,58,9001,ACCIONES CENTRALES,3,3999999,SIN PRODUCTO,5000002,CONDUCCION Y ORIENTACION SUPERIOR,03,"PLANEAMIENTO, GESTION Y RESERVA DE CONTINGENCIA",006,GESTION,0007,DIRECCION Y SUPERVISION SUPERIOR,00001,0001109,NORMAR Y FISCALIZAR,01,AMAZONAS,2,RECURSOS DIRECTAMENTE RECAUDADOS,09,RECURSOS DIRECTAMENTE RECAUDADOS,0,NORMAL,5,GASTO CORRIENTE,2,3,BIENES Y SERVICIOS,2,CONTRATACION DE SERVICIOS,5,ALQUILERES DE MUEBLES E INMUEBLES,1,ALQUILERES DE MUEBLES E INMUEBLES,1,DE EDIFICIOS Y ESTRUCTURAS,27600,25730,0,0,0,0,0
32,33,2016,0,M,GOBIERNOS LOCALES,00,GOBIERNO LOCAL,000,MUNICIPALIDAD PROVINCIAL DE CHACHAPOYAS,300001,001,MUNICIPALIDAD PROVINCIAL DE CHACHAPOYAS,01,AMAZONAS,01,CHACHAPOYAS,01,CHACHAPOYAS,58,9001,ACCIONES CENTRALES,3,3999999,SIN PRODUCTO,5000002,CONDUCCION Y ORIENTACION SUPERIOR,03,"PLANEAMIENTO, GESTION Y RESERVA DE CONTINGENCIA",006,GESTION,0007,DIRECCION Y SUPERVISION SUPERIOR,00001,0001109,NORMAR Y FISCALIZAR,01,AMAZONAS,2,RECURSOS DIRECTAMENTE RECAUDADOS,09,RECURSOS DIRECTAMENTE RECAUDADOS,0,NORMAL,5,GASTO CORRIENTE,2,3,BIENES Y SERVICIOS,2,CONTRATACION DE SERVICIOS,6,"SERVICIOS ADMINISTRATIVOS, FINANCIEROS Y DE SEGUROS",3,SEGUROS,3,SEGURO OBLIGATORIO ACCIDENTES DE TRANSITO (SOAT),2160,2160,0,0,0,0,0
33,34,2016,0,M,GOBIERNOS LOCALES,00,GOBIERNO LOCAL,000,MUNICIPALIDAD PROVINCIAL DE CHACHAPOYAS,300001,001,MUNICIPALIDAD PROVINCIAL DE CHACHAPOYAS,01,AMAZONAS,01,CHACHAPOYAS,01,CHACHAPOYAS,58,9001,ACCIONES CENTRALES,3,3999999,SIN PRODUCTO,5000002,CONDUCCION Y ORIENTACION SUPERIOR,03,"PLANEAMIENTO, GESTION Y RESERVA DE CONTINGENCIA",006,GESTION,0007,DIRECCION Y SUPERVISION SUPERIOR,00001,0001109,NORMAR Y FISCALIZAR,01,AMAZONAS,5,RECURSOS DETERMINADOS,07,FONDO DE COMPENSACION MUNICIPAL,0,NORMAL,5,GASTO CORRIENTE,2,1,PERSONAL Y OBLIGACIONES SOCIALES,1,RETRIBUCIONES Y COMPLEMENTOS EN EFECTIVO,1,PERSONAL ADMINISTRATIVO,1,PERSONAL ADMINISTRATIVO,1,FUNCIONARIOS ELEGIDOS POR ELECCION POLITICA,74880,74880,0,0,0,0,0
34,35,2016,0,M,GOBIERNOS LOCALES,00,GOBIERNO LOCAL,000,MUNICIPALIDAD PROVINCIAL DE CHACHAPOYAS,300001,001,MUNICIPALIDAD PROVINCIAL DE CHACHAPOYAS,01,AMAZONAS,01,CHACHAPOYAS,01,CHACHAPOYAS,58,9001,ACCIONES CENTRALES,3,3999999,SIN PRODUCTO,5000002,CONDUCCION Y ORIENTACION SUPERIOR,03,"PLANEAMIENTO, GESTION Y RESERVA DE CONTINGENCIA",006,GESTION,0007,DIRECCION Y SUPERVISION SUPERIOR,00001,0001109,NORMAR Y FISCALIZAR,01,AMAZONAS,5,RECURSOS DETERMINADOS,07,FONDO DE COMPENSACION MUNICIPAL,0,NORMAL,5,GASTO CORRIENTE,2,1,PERSONAL Y OBLIGACIONES SOCIALES,1,RETRIBUCIONES Y COMPLEMENTOS EN EFECTIVO,1,PERSONAL ADMINISTRATIVO,1,PERSONAL ADMINISTRATIVO,3,PERSONAL CON CONTRATO A PLAZO FIJO (REGIMEN LABORAL PUBLICO),156117,156117,0,0,0,0,0
35,36,2016,0,M,GOBIERNOS LOCALES,00,GOBIERNO LOCAL,000,MUNICIPALIDAD PROVINCIAL DE CHACHAPOYAS,300001,001,MUNICIPALIDAD PROVINCIAL DE CHACHAPOYAS,01,AMAZONAS,01,CHACHAPOYAS,01,CHACHAPOYAS,58,9001,ACCIONES CENTRALES,3,3999999,SIN PRODUCTO,5000002,CONDUCCION Y ORIENTACION SUPERIOR,03,"PLANEAMIENTO, GESTION Y RESERVA DE CONTINGENCIA",006,GESTION,0007,DIRECCION Y SUPERVISION SUPERIOR,00001,0001109,NORMAR Y FISCALIZAR,01,AMAZONAS,5,RECURSOS DETERMINADOS,07,FONDO DE COMPENSACION MUNICIPAL,0,NORMAL,5,GASTO CORRIENTE,2,1,PERSONAL Y OBLIGACIONES SOCIALES,1,RETRIBUCIONES Y COMPLEMENTOS EN EFECTIVO,9,GASTOS VARIABLES Y OCASIONALES,1,"ESCOLARIDAD, AGUINALDOS Y GRATIFICACIONES",2,AGUINALDOS,5232,5232,0,0,0,0,0
36,37,2016,0,M,GOBIERNOS LOCALES,00,GOBIERNO LOCAL,000,MUNICIPALIDAD PROVINCIAL DE CHACHAPOYAS,300001,001,MUNICIPALIDAD PROVINCIAL DE CHACHAPOYAS,01,AMAZONAS,01,CHACHAPOYAS,01,CHACHAPOYAS,58,9001,ACCIONES CENTRALES,3,3999999,SIN PRODUCTO,5000002,CONDUCCION Y ORIENTACION SUPERIOR,03,"PLANEAMIENTO, GESTION Y RESERVA DE CONTINGENCIA",006,GESTION,0007,DIRECCION Y SUPERVISION SUPERIOR,00001,0001109,NORMAR Y FISCALIZAR,01,AMAZONAS,5,RECURSOS DETERMINADOS,07,FONDO DE COMPENSACION MUNICIPAL,0,NORMAL,5,GASTO CORRIENTE,2,1,PERSONAL Y OBLIGACIONES SOCIALES,1,RETRIBUCIONES Y COMPLEMENTOS EN EFECTIVO,9,GASTOS VARIABLES Y OCASIONALES,1,"ESCOLARIDAD, AGUINALDOS Y GRATIFICACIONES",3,BONIFICACION POR ESCOLARIDAD,3200,3200,0,0,0,0,0
37,38,2016,0,M,GOBIERNOS LOCALES,00,GOBIERNO LOCAL,000,MUNICIPALIDAD PROVINCIAL DE CHACHAPOYAS,300001,001,MUNICIPALIDAD PROVINCIAL DE CHACHAPOYAS,01,AMAZONAS,01,CHACHAPOYAS,01,CHACHAPOYAS,58,9001,ACCIONES CENTRALES,3,3999999,SIN PRODUCTO,5000002,CONDUCCION Y ORIENTACION SUPERIOR,03,"PLANEAMIENTO, GESTION Y RESERVA DE CONTINGENCIA",006,GESTION,0007,DIRECCION Y SUPERVISION SUPERIOR,00001,0001109,NORMAR Y FISCALIZAR,01,AMAZONAS,5,RECURSOS DETERMINADOS,07,FONDO DE COMPENSACION MUNICIPAL,0,NORMAL,5,GASTO CORRIENTE,2,1,PERSONAL Y OBLIGACIONES SOCIALES,1,RETRIBUCIONES Y COMPLEMENTOS EN EFECTIVO,9,GASTOS VARIABLES Y OCASIONALES,3,OTROS GASTOS VARIABLES Y OCASIONALES,99,OTRAS OCASIONALES,10068,10068,0,0,0,0,0
38,39,2016,0,M,GOBIERNOS LOCALES,00,GOBIERNO LOCAL,000,MUNICIPALIDAD PROVINCIAL DE CHACHAPOYAS,300001,001,MUNICIPALIDAD PROVINCIAL DE CHACHAPOYAS,01,AMAZONAS,01,CHACHAPOYAS,01,CHACHAPOYAS,58,9001,ACCIONES CENTRALES,3,3999999,SIN PRODUCTO,5000002,CONDUCCION Y ORIENTACION SUPERIOR,03,"PLANEAMIENTO, GESTION Y RESERVA DE CONTINGENCIA",006,GESTION,0007,DIRECCION Y SUPERVISION SUPERIOR,00001,0001109,NORMAR Y FISCALIZAR,01,AMAZONAS,5,RECURSOS DETERMINADOS,07,FONDO DE COMPENSACION MUNICIPAL,0,NORMAL,5,GASTO CORRIENTE,2,1,PERSONAL Y OBLIGACIONES SOCIALES,3,CONTRIBUCIONES A LA SEGURIDAD SOCIAL,1,OBLIGACIONES DEL EMPLEADOR,1,OBLIGACIONES DEL EMPLEADOR,5,CONTRIBUCIONES A ESSALUD,20790,20790,0,0,0,0,0
39,40,2016,0,M,GOBIERNOS LOCALES,00,GOBIERNO LOCAL,000,MUNICIPALIDAD PROVINCIAL DE CHACHAPOYAS,300001,001,MUNICIPALIDAD PROVINCIAL DE CHACHAPOYAS,01,AMAZONAS,01,CHACHAPOYAS,01,CHACHAPOYAS,58,9001,ACCIONES CENTRALES,3,3999999,SIN PRODUCTO,5000002,CONDUCCION Y ORIENTACION SUPERIOR,03,"PLANEAMIENTO, GESTION Y RESERVA DE CONTINGENCIA",006,GESTION,0007,DIRECCION Y SUPERVISION SUPERIOR,00001,0001109,NORMAR Y FISCALIZAR,01,AMAZONAS,5,RECURSOS DETERMINADOS,07,FONDO DE COMPENSACION MUNICIPAL,0,NORMAL,5,GASTO CORRIENTE,2,3,BIENES Y SERVICIOS,1,COMPRA DE BIENES,3,"COMBUSTIBLES, CARBURANTES, LUBRICANTES Y AFINES",1,"COMBUSTIBLES, CARBURANTES, LUBRICANTES Y AFINES",1,COMBUSTIBLES Y CARBURANTES,0,50,0,0,0,0,0
40,41,2016,0,M,GOBIERNOS LOCALES,00,GOBIERNO LOCAL,000,MUNICIPALIDAD PROVINCIAL DE CHACHAPOYAS,300001,001,MUNICIPALIDAD PROVINCIAL DE CHACHAPOYAS,01,AMAZONAS,01,CHACHAPOYAS,01,CHACHAPOYAS,58,9001,ACCIONES CENTRALES,3,3999999,SIN PRODUCTO,5000002,CONDUCCION Y ORIENTACION SUPERIOR,03,"PLANEAMIENTO, GESTION Y RESERVA DE CONTINGENCIA",006,GESTION,0007,DIRECCION Y SUPERVISION SUPERIOR,00001,0001109,NORMAR Y FISCALIZAR,01,AMAZONAS,5,RECURSOS DETERMINADOS,07,FONDO DE COMPENSACION MUNICIPAL,0,NORMAL,5,GASTO CORRIENTE,2,3,BIENES Y SERVICIOS,1,COMPRA DE BIENES,5,MATERIALES Y  UTILES,1,DE OFICINA,1,REPUESTOS Y ACCESORIOS,0,1368,0,0,0,0,0
41,42,2016,0,M,GOBIERNOS LOCALES,00,GOBIERNO LOCAL,000,MUNICIPALIDAD PROVINCIAL DE CHACHAPOYAS,300001,001,MUNICIPALIDAD PROVINCIAL DE CHACHAPOYAS,01,AMAZONAS,01,CHACHAPOYAS,01,CHACHAPOYAS,58,9001,ACCIONES CENTRALES,3,3999999,SIN PRODUCTO,5000002,CONDUCCION Y ORIENTACION SUPERIOR,03,"PLANEAMIENTO, GESTION Y RESERVA DE CONTINGENCIA",006,GESTION,0007,DIRECCION Y SUPERVISION SUPERIOR,00001,0001109,NORMAR Y FISCALIZAR,01,AMAZONAS,5,RECURSOS DETERMINADOS,07,FONDO DE COMPENSACION MUNICIPAL,0,NORMAL,5,GASTO CORRIENTE,2,3,BIENES Y SERVICIOS,2,CONTRATACION DE SERVICIOS,1,VIAJES,2,VIAJES DOMESTICOS,1,PASAJES Y GASTOS DE TRANSPORTE,20283,4883,0,0,0,0,0
42,43,2016,0,M,GOBIERNOS LOCALES,00,GOBIERNO LOCAL,000,MUNICIPALIDAD PROVINCIAL DE CHACHAPOYAS,300001,001,MUNICIPALIDAD PROVINCIAL DE CHACHAPOYAS,01,AMAZONAS,01,CHACHAPOYAS,01,CHACHAPOYAS,58,9001,ACCIONES CENTRALES,3,3999999,SIN PRODUCTO,5000002,CONDUCCION Y ORIENTACION SUPERIOR,03,"PLANEAMIENTO, GESTION Y RESERVA DE CONTINGENCIA",006,GESTION,0007,DIRECCION Y SUPERVISION SUPERIOR,00001,0001109,NORMAR Y FISCALIZAR,01,AMAZONAS,5,RECURSOS DETERMINADOS,07,FONDO DE COMPENSACION MUNICIPAL,0,NORMAL,5,GASTO CORRIENTE,2,3,BIENES Y SERVICIOS,2,CONTRATACION DE SERVICIOS,1,VIAJES,2,VIAJES DOMESTICOS,2,VIATICOS Y ASIGNACIONES POR COMISION DE SERVICIO,46721,28476,0,0,0,0,0
43,44,2016,0,M,GOBIERNOS LOCALES,00,GOBIERNO LOCAL,000,MUNICIPALIDAD PROVINCIAL DE CHACHAPOYAS,300001,001,MUNICIPALIDAD PROVINCIAL DE CHACHAPOYAS,01,AMAZONAS,01,CHACHAPOYAS,01,CHACHAPOYAS,58,9001,ACCIONES CENTRALES,3,3999999,SIN PRODUCTO,5000002,CONDUCCION Y ORIENTACION SUPERIOR,03,"PLANEAMIENTO, GESTION Y RESERVA DE CONTINGENCIA",006,GESTION,0007,DIRECCION Y SUPERVISION SUPERIOR,00001,0001109,NORMAR Y FISCALIZAR,01,AMAZONAS,5,RECURSOS DETERMINADOS,07,FONDO DE COMPENSACION MUNICIPAL,0,NORMAL,5,GASTO CORRIENTE,2,3,BIENES Y SERVICIOS,2,CONTRATACION DE SERVICIOS,2,"SERVICIOS BASICOS, COMUNICACIONES, PUBLICIDAD Y DIFUSION",2,SERVICIOS DE TELEFONIA E INTERNET,1,SERVICIO DE TELEFONIA MOVIL,0,1684,0,0,0,0,0
44,45,2016,0,M,GOBIERNOS LOCALES,00,GOBIERNO LOCAL,000,MUNICIPALIDAD PROVINCIAL DE CHACHAPOYAS,300001,001,MUNICIPALIDAD PROVINCIAL DE CHACHAPOYAS,01,AMAZONAS,01,CHACHAPOYAS,01,CHACHAPOYAS,58,9001,ACCIONES CENTRALES,3,3999999,SIN PRODUCTO,5000002,CONDUCCION Y ORIENTACION SUPERIOR,03,"PLANEAMIENTO, GESTION Y RESERVA DE CONTINGENCIA",006,GESTION,0007,DIRECCION Y SUPERVISION SUPERIOR,00001,0001109,NORMAR Y FISCALIZAR,01,AMAZONAS,5,RECURSOS DETERMINADOS,07,FONDO DE COMPENSACION MUNICIPAL,0,NORMAL,5,GASTO CORRIENTE,2,3,BIENES Y SERVICIOS,2,CONTRATACION DE SERVICIOS,2,"SERVICIOS BASICOS, COMUNICACIONES, PUBLICIDAD Y DIFUSION",2,SERVICIOS DE TELEFONIA E INTERNET,2,SERVICIO DE TELEFONIA FIJA,5200,5016,0,0,0,0,0
45,46,2016,0,M,GOBIERNOS LOCALES,00,GOBIERNO LOCAL,000,MUNICIPALIDAD PROVINCIAL DE CHACHAPOYAS,300001,001,MUNICIPALIDAD PROVINCIAL DE CHACHAPOYAS,01,AMAZONAS,01,CHACHAPOYAS,01,CHACHAPOYAS,58,9001,ACCIONES CENTRALES,3,3999999,SIN PRODUCTO,5000002,CONDUCCION Y ORIENTACION SUPERIOR,03,"PLANEAMIENTO, GESTION Y RESERVA DE CONTINGENCIA",006,GESTION,0007,DIRECCION Y SUPERVISION SUPERIOR,00001,0001109,NORMAR Y FISCALIZAR,01,AMAZONAS,5,RECURSOS DETERMINADOS,07,FONDO DE COMPENSACION MUNICIPAL,0,NORMAL,5,GASTO CORRIENTE,2,3,BIENES Y SERVICIOS,2,CONTRATACION DE SERVICIOS,2,"SERVICIOS BASICOS, COMUNICACIONES, PUBLICIDAD Y DIFUSION",3,"SERVICIOS DE MENSAJERIA, TELECOMUNICACIONES Y OTROS AFINES",1,CORREOS Y SERVICIOS DE MENSAJERIA,4200,1000,0,0,0,0,0
46,47,2016,0,M,GOBIERNOS LOCALES,00,GOBIERNO LOCAL,000,MUNICIPALIDAD PROVINCIAL DE CHACHAPOYAS,300001,001,MUNICIPALIDAD PROVINCIAL DE CHACHAPOYAS,01,AMAZONAS,01,CHACHAPOYAS,01,CHACHAPOYAS,58,9001,ACCIONES CENTRALES,3,3999999,SIN PRODUCTO,5000002,CONDUCCION Y ORIENTACION SUPERIOR,03,"PLANEAMIENTO, GESTION Y RESERVA DE CONTINGENCIA",006,GESTION,0007,DIRECCION Y SUPERVISION SUPERIOR,00001,0001109,NORMAR Y FISCALIZAR,01,AMAZONAS,5,RECURSOS DETERMINADOS,07,FONDO DE COMPENSACION MUNICIPAL,0,NORMAL,5,GASTO CORRIENTE,2,3,BIENES Y SERVICIOS,2,CONTRATACION DE SERVICIOS,2,"SERVICIOS BASICOS, COMUNICACIONES, PUBLICIDAD Y DIFUSION",4,"SERVICIO DE PUBLICIDAD, IMPRESIONES,DIFUSION E IMAGEN INSTITUCIONAL",3,SERVICIOS DE IMAGEN INSTITUCIONAL,0,63659,0,0,0,0,0
47,48,2016,0,M,GOBIERNOS LOCALES,00,GOBIERNO LOCAL,000,MUNICIPALIDAD PROVINCIAL DE CHACHAPOYAS,300001,001,MUNICIPALIDAD PROVINCIAL DE CHACHAPOYAS,01,AMAZONAS,01,CHACHAPOYAS,01,CHACHAPOYAS,58,9001,ACCIONES CENTRALES,3,3999999,SIN PRODUCTO,5000002,CONDUCCION Y ORIENTACION SUPERIOR,03,"PLANEAMIENTO, GESTION Y RESERVA DE CONTINGENCIA",006,GESTION,0007,DIRECCION Y SUPERVISION SUPERIOR,00001,0001109,NORMAR Y FISCALIZAR,01,AMAZONAS,5,RECURSOS DETERMINADOS,07,FONDO DE COMPENSACION MUNICIPAL,0,NORMAL,5,GASTO CORRIENTE,2,3,BIENES Y SERVICIOS,2,CONTRATACION DE SERVICIOS,2,"SERVICIOS BASICOS, COMUNICACIONES, PUBLICIDAD Y DIFUSION",4,"SERVICIO DE PUBLICIDAD, IMPRESIONES,DIFUSION E IMAGEN INSTITUCIONAL",4,"SERVICIO DE IMPRESIONES, ENCUADERNACION Y EMPASTADO",0,2310,0,0,0,0,0
48,49,2016,0,M,GOBIERNOS LOCALES,00,GOBIERNO LOCAL,000,MUNICIPALIDAD PROVINCIAL DE CHACHAPOYAS,300001,001,MUNICIPALIDAD PROVINCIAL DE CHACHAPOYAS,01,AMAZONAS,01,CHACHAPOYAS,01,CHACHAPOYAS,58,9001,ACCIONES CENTRALES,3,3999999,SIN PRODUCTO,5000002,CONDUCCION Y ORIENTACION SUPERIOR,03,"PLANEAMIENTO, GESTION Y RESERVA DE CONTINGENCIA",006,GESTION,0007,DIRECCION Y SUPERVISION SUPERIOR,00001,0001109,NORMAR Y FISCALIZAR,01,AMAZONAS,5,RECURSOS DETERMINADOS,07,FONDO DE COMPENSACION MUNICIPAL,0,NORMAL,5,GASTO CORRIENTE,2,3,BIENES Y SERVICIOS,2,CONTRATACION DE SERVICIOS,4,"SERVICIO DE MANTENIMIENTO, ACONDICIONAMIENTO Y  REPARACIONES",1,"SERVICIO DE MANTENIMIENTO, ACONDICIONAMIENTO Y  REPARACIONES",3,DE VEHICULOS,0,10016,0,0,0,0,0
49,50,2016,0,M,GOBIERNOS LOCALES,00,GOBIERNO LOCAL,000,MUNICIPALIDAD PROVINCIAL DE CHACHAPOYAS,300001,001,MUNICIPALIDAD PROVINCIAL DE CHACHAPOYAS,01,AMAZONAS,01,CHACHAPOYAS,01,CHACHAPOYAS,58,9001,ACCIONES CENTRALES,3,3999999,SIN PRODUCTO,5000002,CONDUCCION Y ORIENTACION SUPERIOR,03,"PLANEAMIENTO, GESTION Y RESERVA DE CONTINGENCIA",006,GESTION,0007,DIRECCION Y SUPERVISION SUPERIOR,00001,0001109,NORMAR Y FISCALIZAR,01,AMAZONAS,5,RECURSOS DETERMINADOS,07,FONDO DE COMPENSACION MUNICIPAL,0,NORMAL,5,GASTO CORRIENTE,2,3,BIENES Y SERVICIOS,2,CONTRATACION DE SERVICIOS,7,SERVICIOS PROFESIONALES Y TECNICOS,11,OTROS SERVICIOS,99,SERVICIOS DIVERSOS,0,45115,0,0,0,0,0
50,51,2016,0,M,GOBIERNOS LOCALES,00,GOBIERNO LOCAL,000,MUNICIPALIDAD PROVINCIAL DE CHACHAPOYAS,300001,001,MUNICIPALIDAD PROVINCIAL DE CHACHAPOYAS,01,AMAZONAS,01,CHACHAPOYAS,01,CHACHAPOYAS,58,9001,ACCIONES CENTRALES,3,3999999,SIN PRODUCTO,5000002,CONDUCCION Y ORIENTACION SUPERIOR,03,"PLANEAMIENTO, GESTION Y RESERVA DE CONTINGENCIA",006,GESTION,0007,DIRECCION Y SUPERVISION SUPERIOR,00001,0001109,NORMAR Y FISCALIZAR,01,AMAZONAS,5,RECURSOS DETERMINADOS,07,FONDO DE COMPENSACION MUNICIPAL,0,NORMAL,6,GASTO DE CAPITAL,2,6,ADQUISICION DE ACTIVOS NO FINANCIEROS,3,"ADQUISICION DE VEHICULOS, MAQUINARIAS Y OTROS",2,"ADQUISICION DE MAQUINARIAS, EQUIPO Y MOBILIARIO",1,PARA OFICINA,1,MAQUINAS Y EQUIPOS,0,1241,0,0,0,0,0
51,52,2016,0,M,GOBIERNOS LOCALES,00,GOBIERNO LOCAL,000,MUNICIPALIDAD PROVINCIAL DE CHACHAPOYAS,300001,001,MUNICIPALIDAD PROVINCIAL DE CHACHAPOYAS,01,AMAZONAS,01,CHACHAPOYAS,01,CHACHAPOYAS,58,9001,ACCIONES CENTRALES,3,3999999,SIN PRODUCTO,5000002,CONDUCCION Y ORIENTACION SUPERIOR,03,"PLANEAMIENTO, GESTION Y RESERVA DE CONTINGENCIA",006,GESTION,0007,DIRECCION Y SUPERVISION SUPERIOR,00001,0001109,NORMAR Y FISCALIZAR,01,AMAZONAS,5,RECURSOS DETERMINADOS,07,FONDO DE COMPENSACION MUNICIPAL,0,NORMAL,6,GASTO DE CAPITAL,2,6,ADQUISICION DE ACTIVOS NO FINANCIEROS,3,"ADQUISICION DE VEHICULOS, MAQUINARIAS Y OTROS",2,"ADQUISICION DE MAQUINARIAS, EQUIPO Y MOBILIARIO",1,PARA OFICINA,2,MOBILIARIO,0,5200,0,0,0,0,0
52,53,2016,0,M,GOBIERNOS LOCALES,00,GOBIERNO LOCAL,000,MUNICIPALIDAD PROVINCIAL DE CHACHAPOYAS,300001,001,MUNICIPALIDAD PROVINCIAL DE CHACHAPOYAS,01,AMAZONAS,01,CHACHAPOYAS,01,CHACHAPOYAS,58,9001,ACCIONES CENTRALES,3,3999999,SIN PRODUCTO,5000002,CONDUCCION Y ORIENTACION SUPERIOR,03,"PLANEAMIENTO, GESTION Y RESERVA DE CONTINGENCIA",006,GESTION,0007,DIRECCION Y SUPERVISION SUPERIOR,00001,0001109,NORMAR Y FISCALIZAR,01,AMAZONAS,5,RECURSOS DETERMINADOS,07,FONDO DE COMPENSACION MUNICIPAL,0,NORMAL,6,GASTO DE CAPITAL,2,6,ADQUISICION DE ACTIVOS NO FINANCIEROS,3,"ADQUISICION DE VEHICULOS, MAQUINARIAS Y OTROS",2,"ADQUISICION DE MAQUINARIAS, EQUIPO Y MOBILIARIO",3,ADQUISICION DE EQUIPOS INFORMATICOS Y DE COMUNICACIONES,1,EQUIPOS COMPUTACIONALES Y PERIFERICOS,0,7739,0,0,0,0,0
53,54,2016,0,M,GOBIERNOS LOCALES,00,GOBIERNO LOCAL,000,MUNICIPALIDAD PROVINCIAL DE CHACHAPOYAS,300001,001,MUNICIPALIDAD PROVINCIAL DE CHACHAPOYAS,01,AMAZONAS,01,CHACHAPOYAS,01,CHACHAPOYAS,58,9001,ACCIONES CENTRALES,3,3999999,SIN PRODUCTO,5000002,CONDUCCION Y ORIENTACION SUPERIOR,03,"PLANEAMIENTO, GESTION Y RESERVA DE CONTINGENCIA",006,GESTION,0007,DIRECCION Y SUPERVISION SUPERIOR,00001,0001109,NORMAR Y FISCALIZAR,01,AMAZONAS,5,RECURSOS DETERMINADOS,08,IMPUESTOS MUNICIPALES,0,NORMAL,5,GASTO CORRIENTE,2,3,BIENES Y SERVICIOS,1,COMPRA DE BIENES,6,REPUESTOS Y ACCESORIOS,1,REPUESTOS Y ACCESORIOS,1,DE VEHICULOS,0,3860,0,0,0,0,0
54,55,2016,0,M,GOBIERNOS LOCALES,00,GOBIERNO LOCAL,000,MUNICIPALIDAD PROVINCIAL DE CHACHAPOYAS,300001,001,MUNICIPALIDAD PROVINCIAL DE CHACHAPOYAS,01,AMAZONAS,01,CHACHAPOYAS,01,CHACHAPOYAS,58,9001,ACCIONES CENTRALES,3,3999999,SIN PRODUCTO,5000002,CONDUCCION Y ORIENTACION SUPERIOR,03,"PLANEAMIENTO, GESTION Y RESERVA DE CONTINGENCIA",006,GESTION,0007,DIRECCION Y SUPERVISION SUPERIOR,00001,0001109,NORMAR Y FISCALIZAR,01,AMAZONAS,5,RECURSOS DETERMINADOS,08,IMPUESTOS MUNICIPALES,0,NORMAL,5,GASTO CORRIENTE,2,3,BIENES Y SERVICIOS,1,COMPRA DE BIENES,99,COMPRA DE OTROS BIENES,1,COMPRA DE OTROS BIENES,99,OTROS BIENES,15000,9594,0,0,0,0,0
55,56,2016,0,M,GOBIERNOS LOCALES,00,GOBIERNO LOCAL,000,MUNICIPALIDAD PROVINCIAL DE CHACHAPOYAS,300001,001,MUNICIPALIDAD PROVINCIAL DE CHACHAPOYAS,01,AMAZONAS,01,CHACHAPOYAS,01,CHACHAPOYAS,58,9001,ACCIONES CENTRALES,3,3999999,SIN PRODUCTO,5000002,CONDUCCION Y ORIENTACION SUPERIOR,03,"PLANEAMIENTO, GESTION Y RESERVA DE CONTINGENCIA",006,GESTION,0007,DIRECCION Y SUPERVISION SUPERIOR,00001,0001109,NORMAR Y FISCALIZAR,01,AMAZONAS,5,RECURSOS DETERMINADOS,08,IMPUESTOS MUNICIPALES,0,NORMAL,5,GASTO CORRIENTE,2,3,BIENES Y SERVICIOS,2,CONTRATACION DE SERVICIOS,1,VIAJES,2,VIAJES DOMESTICOS,1,PASAJES Y GASTOS DE TRANSPORTE,0,1460,0,0,0,0,0
56,57,2016,0,M,GOBIERNOS LOCALES,00,GOBIERNO LOCAL,000,MUNICIPALIDAD PROVINCIAL DE CHACHAPOYAS,300001,001,MUNICIPALIDAD PROVINCIAL DE CHACHAPOYAS,01,AMAZONAS,01,CHACHAPOYAS,01,CHACHAPOYAS,58,9001,ACCIONES CENTRALES,3,3999999,SIN PRODUCTO,5000002,CONDUCCION Y ORIENTACION SUPERIOR,03,"PLANEAMIENTO, GESTION Y RESERVA DE CONTINGENCIA",006,GESTION,0007,DIRECCION Y SUPERVISION SUPERIOR,00001,0001109,NORMAR Y FISCALIZAR,01,AMAZONAS,5,RECURSOS DETERMINADOS,08,IMPUESTOS MUNICIPALES,0,NORMAL,5,GASTO CORRIENTE,2,3,BIENES Y SERVICIOS,2,CONTRATACION DE SERVICIOS,1,VIAJES,2,VIAJES DOMESTICOS,2,VIATICOS Y ASIGNACIONES POR COMISION DE SERVICIO,0,7298,0,0,0,0,0
57,58,2016,0,M,GOBIERNOS LOCALES,00,GOBIERNO LOCAL,000,MUNICIPALIDAD PROVINCIAL DE CHACHAPOYAS,300001,001,MUNICIPALIDAD PROVINCIAL DE CHACHAPOYAS,01,AMAZONAS,01,CHACHAPOYAS,01,CHACHAPOYAS,58,9001,ACCIONES CENTRALES,3,3999999,SIN PRODUCTO,5000002,CONDUCCION Y ORIENTACION SUPERIOR,03,"PLANEAMIENTO, GESTION Y RESERVA DE CONTINGENCIA",006,GESTION,0007,DIRECCION Y SUPERVISION SUPERIOR,00001,0001109,NORMAR Y FISCALIZAR,01,AMAZONAS,5,RECURSOS DETERMINADOS,08,IMPUESTOS MUNICIPALES,0,NORMAL,5,GASTO CORRIENTE,2,3,BIENES Y SERVICIOS,2,CONTRATACION DE SERVICIOS,2,"SERVICIOS BASICOS, COMUNICACIONES, PUBLICIDAD Y DIFUSION",2,SERVICIOS DE TELEFONIA E INTERNET,1,SERVICIO DE TELEFONIA MOVIL,2960,2360,0,0,0,0,0
58,59,2016,0,M,GOBIERNOS LOCALES,00,GOBIERNO LOCAL,000,MUNICIPALIDAD PROVINCIAL DE CHACHAPOYAS,300001,001,MUNICIPALIDAD PROVINCIAL DE CHACHAPOYAS,01,AMAZONAS,01,CHACHAPOYAS,01,CHACHAPOYAS,58,9001,ACCIONES CENTRALES,3,3999999,SIN PRODUCTO,5000002,CONDUCCION Y ORIENTACION SUPERIOR,03,"PLANEAMIENTO, GESTION Y RESERVA DE CONTINGENCIA",006,GESTION,0007,DIRECCION Y SUPERVISION SUPERIOR,00001,0001109,NORMAR Y FISCALIZAR,01,AMAZONAS,5,RECURSOS DETERMINADOS,08,IMPUESTOS MUNICIPALES,0,NORMAL,5,GASTO CORRIENTE,2,3,BIENES Y SERVICIOS,2,CONTRATACION DE SERVICIOS,2,"SERVICIOS BASICOS, COMUNICACIONES, PUBLICIDAD Y DIFUSION",4,"SERVICIO DE PUBLICIDAD, IMPRESIONES,DIFUSION E IMAGEN INSTITUCIONAL",1,SERVICIO DE PUBLICIDAD,0,37150,0,0,0,0,0
59,60,2016,0,M,GOBIERNOS LOCALES,00,GOBIERNO LOCAL,000,MUNICIPALIDAD PROVINCIAL DE CHACHAPOYAS,300001,001,MUNICIPALIDAD PROVINCIAL DE CHACHAPOYAS,01,AMAZONAS,01,CHACHAPOYAS,01,CHACHAPOYAS,58,9001,ACCIONES CENTRALES,3,3999999,SIN PRODUCTO,5000002,CONDUCCION Y ORIENTACION SUPERIOR,03,"PLANEAMIENTO, GESTION Y RESERVA DE CONTINGENCIA",006,GESTION,0007,DIRECCION Y SUPERVISION SUPERIOR,00001,0001109,NORMAR Y FISCALIZAR,01,AMAZONAS,5,RECURSOS DETERMINADOS,08,IMPUESTOS MUNICIPALES,0,NORMAL,5,GASTO CORRIENTE,2,3,BIENES Y SERVICIOS,2,CONTRATACION DE SERVICIOS,2,"SERVICIOS BASICOS, COMUNICACIONES, PUBLICIDAD Y DIFUSION",4,"SERVICIO DE PUBLICIDAD, IMPRESIONES,DIFUSION E IMAGEN INSTITUCIONAL",2,OTROS SERVICIOS DE PUBLICIDAD Y DIFUSION,0,3000,0,0,0,0,0
60,61,2016,0,M,GOBIERNOS LOCALES,00,GOBIERNO LOCAL,000,MUNICIPALIDAD PROVINCIAL DE CHACHAPOYAS,300001,001,MUNICIPALIDAD PROVINCIAL DE CHACHAPOYAS,01,AMAZONAS,01,CHACHAPOYAS,01,CHACHAPOYAS,58,9001,ACCIONES CENTRALES,3,3999999,SIN PRODUCTO,5000002,CONDUCCION Y ORIENTACION SUPERIOR,03,"PLANEAMIENTO, GESTION Y RESERVA DE CONTINGENCIA",006,GESTION,0007,DIRECCION Y SUPERVISION SUPERIOR,00001,0001109,NORMAR Y FISCALIZAR,01,AMAZONAS,5,RECURSOS DETERMINADOS,08,IMPUESTOS MUNICIPALES,0,NORMAL,5,GASTO CORRIENTE,2,3,BIENES Y SERVICIOS,2,CONTRATACION DE SERVICIOS,2,"SERVICIOS BASICOS, COMUNICACIONES, PUBLICIDAD Y DIFUSION",4,"SERVICIO DE PUBLICIDAD, IMPRESIONES,DIFUSION E IMAGEN INSTITUCIONAL",4,"SERVICIO DE IMPRESIONES, ENCUADERNACION Y EMPASTADO",0,825,0,0,0,0,0
61,62,2016,0,M,GOBIERNOS LOCALES,00,GOBIERNO LOCAL,000,MUNICIPALIDAD PROVINCIAL DE CHACHAPOYAS,300001,001,MUNICIPALIDAD PROVINCIAL DE CHACHAPOYAS,01,AMAZONAS,01,CHACHAPOYAS,01,CHACHAPOYAS,58,9001,ACCIONES CENTRALES,3,3999999,SIN PRODUCTO,5000002,CONDUCCION Y ORIENTACION SUPERIOR,03,"PLANEAMIENTO, GESTION Y RESERVA DE CONTINGENCIA",006,GESTION,0007,DIRECCION Y SUPERVISION SUPERIOR,00001,0001109,NORMAR Y FISCALIZAR,01,AMAZONAS,5,RECURSOS DETERMINADOS,08,IMPUESTOS MUNICIPALES,0,NORMAL,5,GASTO CORRIENTE,2,3,BIENES Y SERVICIOS,2,CONTRATACION DE SERVICIOS,4,"SERVICIO DE MANTENIMIENTO, ACONDICIONAMIENTO Y  REPARACIONES",1,"SERVICIO DE MANTENIMIENTO, ACONDICIONAMIENTO Y  REPARACIONES",3,DE VEHICULOS,0,11439,0,0,0,0,0
62,63,2016,0,M,GOBIERNOS LOCALES,00,GOBIERNO LOCAL,000,MUNICIPALIDAD PROVINCIAL DE CHACHAPOYAS,300001,001,MUNICIPALIDAD PROVINCIAL DE CHACHAPOYAS,01,AMAZONAS,01,CHACHAPOYAS,01,CHACHAPOYAS,58,9001,ACCIONES CENTRALES,3,3999999,SIN PRODUCTO,5000002,CONDUCCION Y ORIENTACION SUPERIOR,03,"PLANEAMIENTO, GESTION Y RESERVA DE CONTINGENCIA",006,GESTION,0007,DIRECCION Y SUPERVISION SUPERIOR,00001,0001109,NORMAR Y FISCALIZAR,01,AMAZONAS,5,RECURSOS DETERMINADOS,08,IMPUESTOS MUNICIPALES,0,NORMAL,5,GASTO CORRIENTE,2,3,BIENES Y SERVICIOS,2,CONTRATACION DE SERVICIOS,6,"SERVICIOS ADMINISTRATIVOS, FINANCIEROS Y DE SEGUROS",3,SEGUROS,2,SEGURO DE VEHICULOS,0,6742,0,0,0,0,0
63,64,2016,0,M,GOBIERNOS LOCALES,00,GOBIERNO LOCAL,000,MUNICIPALIDAD PROVINCIAL DE CHACHAPOYAS,300001,001,MUNICIPALIDAD PROVINCIAL DE CHACHAPOYAS,01,AMAZONAS,01,CHACHAPOYAS,01,CHACHAPOYAS,58,9001,ACCIONES CENTRALES,3,3999999,SIN PRODUCTO,5000002,CONDUCCION Y ORIENTACION SUPERIOR,03,"PLANEAMIENTO, GESTION Y RESERVA DE CONTINGENCIA",006,GESTION,0007,DIRECCION Y SUPERVISION SUPERIOR,00001,0001109,NORMAR Y FISCALIZAR,01,AMAZONAS,5,RECURSOS DETERMINADOS,08,IMPUESTOS MUNICIPALES,0,NORMAL,5,GASTO CORRIENTE,2,3,BIENES Y SERVICIOS,2,CONTRATACION DE SERVICIOS,7,SERVICIOS PROFESIONALES Y TECNICOS,11,OTROS SERVICIOS,99,SERVICIOS DIVERSOS,15000,11321,0,0,0,0,0
64,65,2016,0,M,GOBIERNOS LOCALES,00,GOBIERNO LOCAL,000,MUNICIPALIDAD PROVINCIAL DE CHACHAPOYAS,300001,001,MUNICIPALIDAD PROVINCIAL DE CHACHAPOYAS,01,AMAZONAS,01,CHACHAPOYAS,01,CHACHAPOYAS,58,9001,ACCIONES CENTRALES,3,3999999,SIN PRODUCTO,5000002,CONDUCCION Y ORIENTACION SUPERIOR,03,"PLANEAMIENTO, GESTION Y RESERVA DE CONTINGENCIA",006,GESTION,0007,DIRECCION Y SUPERVISION SUPERIOR,00001,0001109,NORMAR Y FISCALIZAR,01,AMAZONAS,5,RECURSOS DETERMINADOS,08,IMPUESTOS MUNICIPALES,0,NORMAL,5,GASTO CORRIENTE,2,3,BIENES Y SERVICIOS,2,CONTRATACION DE SERVICIOS,8,CONTRATO ADMINISTRATIVO DE SERVICIOS,1,CONTRATO ADMINISTRATIVO DE SERVICIOS,1,CONTRATO ADMINISTRATIVO DE SERVICIOS,111424,133724,0,0,0,0,0
65,66,2016,0,M,GOBIERNOS LOCALES,00,GOBIERNO LOCAL,000,MUNICIPALIDAD PROVINCIAL DE CHACHAPOYAS,300001,001,MUNICIPALIDAD PROVINCIAL DE CHACHAPOYAS,01,AMAZONAS,01,CHACHAPOYAS,01,CHACHAPOYAS,58,9001,ACCIONES CENTRALES,3,3999999,SIN PRODUCTO,5000002,CONDUCCION Y ORIENTACION SUPERIOR,03,"PLANEAMIENTO, GESTION Y RESERVA DE CONTINGENCIA",006,GESTION,0007,DIRECCION Y SUPERVISION SUPERIOR,00001,0001109,NORMAR Y FISCALIZAR,01,AMAZONAS,5,RECURSOS DETERMINADOS,08,IMPUESTOS MUNICIPALES,0,NORMAL,5,GASTO CORRIENTE,2,3,BIENES Y SERVICIOS,2,CONTRATACION DE SERVICIOS,8,CONTRATO ADMINISTRATIVO DE SERVICIOS,1,CONTRATO ADMINISTRATIVO DE SERVICIOS,2,CONTRIBUCIONES A ESSALUD DE C.A.S.,9675,11682,0,0,0,0,0
66,67,2016,0,M,GOBIERNOS LOCALES,00,GOBIERNO LOCAL,000,MUNICIPALIDAD PROVINCIAL DE CHACHAPOYAS,300001,001,MUNICIPALIDAD PROVINCIAL DE CHACHAPOYAS,01,AMAZONAS,01,CHACHAPOYAS,01,CHACHAPOYAS,58,9001,ACCIONES CENTRALES,3,3999999,SIN PRODUCTO,5000002,CONDUCCION Y ORIENTACION SUPERIOR,03,"PLANEAMIENTO, GESTION Y RESERVA DE CONTINGENCIA",006,GESTION,0007,DIRECCION Y SUPERVISION SUPERIOR,00001,0001109,NORMAR Y FISCALIZAR,01,AMAZONAS,5,RECURSOS DETERMINADOS,08,IMPUESTOS MUNICIPALES,0,NORMAL,6,GASTO DE CAPITAL,2,6,ADQUISICION DE ACTIVOS NO FINANCIEROS,3,"ADQUISICION DE VEHICULOS, MAQUINARIAS Y OTROS",2,"ADQUISICION DE MAQUINARIAS, EQUIPO Y MOBILIARIO",1,PARA OFICINA,2,MOBILIARIO,0,1000,0,0,0,0,0
67,68,2016,0,M,GOBIERNOS LOCALES,00,GOBIERNO LOCAL,000,MUNICIPALIDAD PROVINCIAL DE CHACHAPOYAS,300001,001,MUNICIPALIDAD PROVINCIAL DE CHACHAPOYAS,01,AMAZONAS,01,CHACHAPOYAS,01,CHACHAPOYAS,58,9001,ACCIONES CENTRALES,3,3999999,SIN PRODUCTO,5000002,CONDUCCION Y ORIENTACION SUPERIOR,03,"PLANEAMIENTO, GESTION Y RESERVA DE CONTINGENCIA",006,GESTION,0007,DIRECCION Y SUPERVISION SUPERIOR,00001,0001109,NORMAR Y FISCALIZAR,01,AMAZONAS,5,RECURSOS DETERMINADOS,18,"CANON Y SOBRECANON, REGALIAS, RENTA DE ADUANAS Y PARTICIPACIONES",0,CANON,5,GASTO CORRIENTE,2,3,BIENES Y SERVICIOS,2,CONTRATACION DE SERVICIOS,2,"SERVICIOS BASICOS, COMUNICACIONES, PUBLICIDAD Y DIFUSION",4,"SERVICIO DE PUBLICIDAD, IMPRESIONES,DIFUSION E IMAGEN INSTITUCIONAL",4,"SERVICIO DE IMPRESIONES, ENCUADERNACION Y EMPASTADO",0,1500,0,0,0,0,0
68,69,2016,0,M,GOBIERNOS LOCALES,00,GOBIERNO LOCAL,000,MUNICIPALIDAD PROVINCIAL DE CHACHAPOYAS,300001,001,MUNICIPALIDAD PROVINCIAL DE CHACHAPOYAS,01,AMAZONAS,01,CHACHAPOYAS,01,CHACHAPOYAS,59,9001,ACCIONES CENTRALES,3,3999999,SIN PRODUCTO,5000003,GESTION ADMINISTRATIVA,03,"PLANEAMIENTO, GESTION Y RESERVA DE CONTINGENCIA",006,GESTION,0008,ASESORAMIENTO Y APOYO,00001,0000886,"GERENCIAR RECURSOS MATERIALES, HUMANOS Y FINANCIEROS",01,AMAZONAS,2,RECURSOS DIRECTAMENTE RECAUDADOS,09,RECURSOS DIRECTAMENTE RECAUDADOS,0,NORMAL,5,GASTO CORRIENTE,2,1,PERSONAL Y OBLIGACIONES SOCIALES,1,RETRIBUCIONES Y COMPLEMENTOS EN EFECTIVO,9,GASTOS VARIABLES Y OCASIONALES,3,OTROS GASTOS VARIABLES Y OCASIONALES,3,COMPENSACION VACACIONAL (VACACIONES TRUNCAS),12500,12500,0,0,0,0,0
69,70,2016,0,M,GOBIERNOS LOCALES,00,GOBIERNO LOCAL,000,MUNICIPALIDAD PROVINCIAL DE CHACHAPOYAS,300001,001,MUNICIPALIDAD PROVINCIAL DE CHACHAPOYAS,01,AMAZONAS,01,CHACHAPOYAS,01,CHACHAPOYAS,59,9001,ACCIONES CENTRALES,3,3999999,SIN PRODUCTO,5000003,GESTION ADMINISTRATIVA,03,"PLANEAMIENTO, GESTION Y RESERVA DE CONTINGENCIA",006,GESTION,0008,ASESORAMIENTO Y APOYO,00001,0000886,"GERENCIAR RECURSOS MATERIALES, HUMANOS Y FINANCIEROS",01,AMAZONAS,2,RECURSOS DIRECTAMENTE RECAUDADOS,09,RECURSOS DIRECTAMENTE RECAUDADOS,0,NORMAL,5,GASTO CORRIENTE,2,3,BIENES Y SERVICIOS,1,COMPRA DE BIENES,1,ALIMENTOS Y BEBIDAS,1,ALIMENTOS Y BEBIDAS,1,ALIMENTOS Y BEBIDAS PARA CONSUMO HUMANO,18241,15640,0,0,0,0,0
70,71,2016,0,M,GOBIERNOS LOCALES,00,GOBIERNO LOCAL,000,MUNICIPALIDAD PROVINCIAL DE CHACHAPOYAS,300001,001,MUNICIPALIDAD PROVINCIAL DE CHACHAPOYAS,01,AMAZONAS,01,CHACHAPOYAS,01,CHACHAPOYAS,59,9001,ACCIONES CENTRALES,3,3999999,SIN PRODUCTO,5000003,GESTION ADMINISTRATIVA,03,"PLANEAMIENTO, GESTION Y RESERVA DE CONTINGENCIA",006,GESTION,0008,ASESORAMIENTO Y APOYO,00001,0000886,"GERENCIAR RECURSOS MATERIALES, HUMANOS Y FINANCIEROS",01,AMAZONAS,2,RECURSOS DIRECTAMENTE RECAUDADOS,09,RECURSOS DIRECTAMENTE RECAUDADOS,0,NORMAL,5,GASTO CORRIENTE,2,3,BIENES Y SERVICIOS,1,COMPRA DE BIENES,2,VESTUARIOS Y TEXTILES,1,"VESTUARIO, ZAPATERIA Y ACCESORIOS, TALABARTERIA Y MATERIALES TEXTILES",1,"VESTUARIO, ACCESORIOS Y PRENDAS DIVERSAS",32610,17610,0,0,0,0,0
71,72,2016,0,M,GOBIERNOS LOCALES,00,GOBIERNO LOCAL,000,MUNICIPALIDAD PROVINCIAL DE CHACHAPOYAS,300001,001,MUNICIPALIDAD PROVINCIAL DE CHACHAPOYAS,01,AMAZONAS,01,CHACHAPOYAS,01,CHACHAPOYAS,59,9001,ACCIONES CENTRALES,3,3999999,SIN PRODUCTO,5000003,GESTION ADMINISTRATIVA,03,"PLANEAMIENTO, GESTION Y RESERVA DE CONTINGENCIA",006,GESTION,0008,ASESORAMIENTO Y APOYO,00001,0000886,"GERENCIAR RECURSOS MATERIALES, HUMANOS Y FINANCIEROS",01,AMAZONAS,2,RECURSOS DIRECTAMENTE RECAUDADOS,09,RECURSOS DIRECTAMENTE RECAUDADOS,0,NORMAL,5,GASTO CORRIENTE,2,3,BIENES Y SERVICIOS,1,COMPRA DE BIENES,3,"COMBUSTIBLES, CARBURANTES, LUBRICANTES Y AFINES",1,"COMBUSTIBLES, CARBURANTES, LUBRICANTES Y AFINES",1,COMBUSTIBLES Y CARBURANTES,150768,120388,0,0,0,0,0
72,73,2016,0,M,GOBIERNOS LOCALES,00,GOBIERNO LOCAL,000,MUNICIPALIDAD PROVINCIAL DE CHACHAPOYAS,300001,001,MUNICIPALIDAD PROVINCIAL DE CHACHAPOYAS,01,AMAZONAS,01,CHACHAPOYAS,01,CHACHAPOYAS,59,9001,ACCIONES CENTRALES,3,3999999,SIN PRODUCTO,5000003,GESTION ADMINISTRATIVA,03,"PLANEAMIENTO, GESTION Y RESERVA DE CONTINGENCIA",006,GESTION,0008,ASESORAMIENTO Y APOYO,00001,0000886,"GERENCIAR RECURSOS MATERIALES, HUMANOS Y FINANCIEROS",01,AMAZONAS,2,RECURSOS DIRECTAMENTE RECAUDADOS,09,RECURSOS DIRECTAMENTE RECAUDADOS,0,NORMAL,5,GASTO CORRIENTE,2,3,BIENES Y SERVICIOS,1,COMPRA DE BIENES,5,MATERIALES Y  UTILES,1,DE OFICINA,2,"PAPELERIA EN GENERAL, UTILES Y MATERIALES DE OFICINA",460,2379,0,0,0,0,0
73,74,2016,0,M,GOBIERNOS LOCALES,00,GOBIERNO LOCAL,000,MUNICIPALIDAD PROVINCIAL DE CHACHAPOYAS,300001,001,MUNICIPALIDAD PROVINCIAL DE CHACHAPOYAS,01,AMAZONAS,01,CHACHAPOYAS,01,CHACHAPOYAS,59,9001,ACCIONES CENTRALES,3,3999999,SIN PRODUCTO,5000003,GESTION ADMINISTRATIVA,03,"PLANEAMIENTO, GESTION Y RESERVA DE CONTINGENCIA",006,GESTION,0008,ASESORAMIENTO Y APOYO,00001,0000886,"GERENCIAR RECURSOS MATERIALES, HUMANOS Y FINANCIEROS",01,AMAZONAS,2,RECURSOS DIRECTAMENTE RECAUDADOS,09,RECURSOS DIRECTAMENTE RECAUDADOS,0,NORMAL,5,GASTO CORRIENTE,2,3,BIENES Y SERVICIOS,1,COMPRA DE BIENES,5,MATERIALES Y  UTILES,99,OTROS,99,OTROS,6399,0,0,0,0,0,0
74,75,2016,0,M,GOBIERNOS LOCALES,00,GOBIERNO LOCAL,000,MUNICIPALIDAD PROVINCIAL DE CHACHAPOYAS,300001,001,MUNICIPALIDAD PROVINCIAL DE CHACHAPOYAS,01,AMAZONAS,01,CHACHAPOYAS,01,CHACHAPOYAS,59,9001,ACCIONES CENTRALES,3,3999999,SIN PRODUCTO,5000003,GESTION ADMINISTRATIVA,03,"PLANEAMIENTO, GESTION Y RESERVA DE CONTINGENCIA",006,GESTION,0008,ASESORAMIENTO Y APOYO,00001,0000886,"GERENCIAR RECURSOS MATERIALES, HUMANOS Y FINANCIEROS",01,AMAZONAS,2,RECURSOS DIRECTAMENTE RECAUDADOS,09,RECURSOS DIRECTAMENTE RECAUDADOS,0,NORMAL,5,GASTO CORRIENTE,2,3,BIENES Y SERVICIOS,1,COMPRA DE BIENES,6,REPUESTOS Y ACCESORIOS,1,REPUESTOS Y ACCESORIOS,1,DE VEHICULOS,25877,25877,0,0,0,0,0
75,76,2016,0,M,GOBIERNOS LOCALES,00,GOBIERNO LOCAL,000,MUNICIPALIDAD PROVINCIAL DE CHACHAPOYAS,300001,001,MUNICIPALIDAD PROVINCIAL DE CHACHAPOYAS,01,AMAZONAS,01,CHACHAPOYAS,01,CHACHAPOYAS,59,9001,ACCIONES CENTRALES,3,3999999,SIN PRODUCTO,5000003,GESTION ADMINISTRATIVA,03,"PLANEAMIENTO, GESTION Y RESERVA DE CONTINGENCIA",006,GESTION,0008,ASESORAMIENTO Y APOYO,00001,0000886,"GERENCIAR RECURSOS MATERIALES, HUMANOS Y FINANCIEROS",01,AMAZONAS,2,RECURSOS DIRECTAMENTE RECAUDADOS,09,RECURSOS DIRECTAMENTE RECAUDADOS,0,NORMAL,5,GASTO CORRIENTE,2,3,BIENES Y SERVICIOS,1,COMPRA DE BIENES,99,COMPRA DE OTROS BIENES,1,COMPRA DE OTROS BIENES,99,OTROS BIENES,153618,254713,0,0,0,0,0
76,77,2016,0,M,GOBIERNOS LOCALES,00,GOBIERNO LOCAL,000,MUNICIPALIDAD PROVINCIAL DE CHACHAPOYAS,300001,001,MUNICIPALIDAD PROVINCIAL DE CHACHAPOYAS,01,AMAZONAS,01,CHACHAPOYAS,01,CHACHAPOYAS,59,9001,ACCIONES CENTRALES,3,3999999,SIN PRODUCTO,5000003,GESTION ADMINISTRATIVA,03,"PLANEAMIENTO, GESTION Y RESERVA DE CONTINGENCIA",006,GESTION,0008,ASESORAMIENTO Y APOYO,00001,0000886,"GERENCIAR RECURSOS MATERIALES, HUMANOS Y FINANCIEROS",01,AMAZONAS,2,RECURSOS DIRECTAMENTE RECAUDADOS,09,RECURSOS DIRECTAMENTE RECAUDADOS,0,NORMAL,5,GASTO CORRIENTE,2,3,BIENES Y SERVICIOS,2,CONTRATACION DE SERVICIOS,1,VIAJES,2,VIAJES DOMESTICOS,1,PASAJES Y GASTOS DE TRANSPORTE,5035,5035,0,0,0,0,0
77,78,2016,0,M,GOBIERNOS LOCALES,00,GOBIERNO LOCAL,000,MUNICIPALIDAD PROVINCIAL DE CHACHAPOYAS,300001,001,MUNICIPALIDAD PROVINCIAL DE CHACHAPOYAS,01,AMAZONAS,01,CHACHAPOYAS,01,CHACHAPOYAS,59,9001,ACCIONES CENTRALES,3,3999999,SIN PRODUCTO,5000003,GESTION ADMINISTRATIVA,03,"PLANEAMIENTO, GESTION Y RESERVA DE CONTINGENCIA",006,GESTION,0008,ASESORAMIENTO Y APOYO,00001,0000886,"GERENCIAR RECURSOS MATERIALES, HUMANOS Y FINANCIEROS",01,AMAZONAS,2,RECURSOS DIRECTAMENTE RECAUDADOS,09,RECURSOS DIRECTAMENTE RECAUDADOS,0,NORMAL,5,GASTO CORRIENTE,2,3,BIENES Y SERVICIOS,2,CONTRATACION DE SERVICIOS,1,VIAJES,2,VIAJES DOMESTICOS,2,VIATICOS Y ASIGNACIONES POR COMISION DE SERVICIO,3420,7420,0,0,0,0,0
78,79,2016,0,M,GOBIERNOS LOCALES,00,GOBIERNO LOCAL,000,MUNICIPALIDAD PROVINCIAL DE CHACHAPOYAS,300001,001,MUNICIPALIDAD PROVINCIAL DE CHACHAPOYAS,01,AMAZONAS,01,CHACHAPOYAS,01,CHACHAPOYAS,59,9001,ACCIONES CENTRALES,3,3999999,SIN PRODUCTO,5000003,GESTION ADMINISTRATIVA,03,"PLANEAMIENTO, GESTION Y RESERVA DE CONTINGENCIA",006,GESTION,0008,ASESORAMIENTO Y APOYO,00001,0000886,"GERENCIAR RECURSOS MATERIALES, HUMANOS Y FINANCIEROS",01,AMAZONAS,2,RECURSOS DIRECTAMENTE RECAUDADOS,09,RECURSOS DIRECTAMENTE RECAUDADOS,0,NORMAL,5,GASTO CORRIENTE,2,3,BIENES Y SERVICIOS,2,CONTRATACION DE SERVICIOS,2,"SERVICIOS BASICOS, COMUNICACIONES, PUBLICIDAD Y DIFUSION",1,"SERVICIOS DE ENERGIA ELECTRICA, AGUA Y GAS",1,SERVICIO DE SUMINISTRO DE ENERGIA ELECTRICA,3000,3000,0,0,0,0,0
79,80,2016,0,M,GOBIERNOS LOCALES,00,GOBIERNO LOCAL,000,MUNICIPALIDAD PROVINCIAL DE CHACHAPOYAS,300001,001,MUNICIPALIDAD PROVINCIAL DE CHACHAPOYAS,01,AMAZONAS,01,CHACHAPOYAS,01,CHACHAPOYAS,59,9001,ACCIONES CENTRALES,3,3999999,SIN PRODUCTO,5000003,GESTION ADMINISTRATIVA,03,"PLANEAMIENTO, GESTION Y RESERVA DE CONTINGENCIA",006,GESTION,0008,ASESORAMIENTO Y APOYO,00001,0000886,"GERENCIAR RECURSOS MATERIALES, HUMANOS Y FINANCIEROS",01,AMAZONAS,2,RECURSOS DIRECTAMENTE RECAUDADOS,09,RECURSOS DIRECTAMENTE RECAUDADOS,0,NORMAL,5,GASTO CORRIENTE,2,3,BIENES Y SERVICIOS,2,CONTRATACION DE SERVICIOS,2,"SERVICIOS BASICOS, COMUNICACIONES, PUBLICIDAD Y DIFUSION",1,"SERVICIOS DE ENERGIA ELECTRICA, AGUA Y GAS",2,SERVICIO DE AGUA Y DESAGUE,16766,16766,0,0,0,0,0
80,81,2016,0,M,GOBIERNOS LOCALES,00,GOBIERNO LOCAL,000,MUNICIPALIDAD PROVINCIAL DE CHACHAPOYAS,300001,001,MUNICIPALIDAD PROVINCIAL DE CHACHAPOYAS,01,AMAZONAS,01,CHACHAPOYAS,01,CHACHAPOYAS,59,9001,ACCIONES CENTRALES,3,3999999,SIN PRODUCTO,5000003,GESTION ADMINISTRATIVA,03,"PLANEAMIENTO, GESTION Y RESERVA DE CONTINGENCIA",006,GESTION,0008,ASESORAMIENTO Y APOYO,00001,0000886,"GERENCIAR RECURSOS MATERIALES, HUMANOS Y FINANCIEROS",01,AMAZONAS,2,RECURSOS DIRECTAMENTE RECAUDADOS,09,RECURSOS DIRECTAMENTE RECAUDADOS,0,NORMAL,5,GASTO CORRIENTE,2,3,BIENES Y SERVICIOS,2,CONTRATACION DE SERVICIOS,2,"SERVICIOS BASICOS, COMUNICACIONES, PUBLICIDAD Y DIFUSION",4,"SERVICIO DE PUBLICIDAD, IMPRESIONES,DIFUSION E IMAGEN INSTITUCIONAL",1,SERVICIO DE PUBLICIDAD,0,3700,0,0,0,0,0
81,82,2016,0,M,GOBIERNOS LOCALES,00,GOBIERNO LOCAL,000,MUNICIPALIDAD PROVINCIAL DE CHACHAPOYAS,300001,001,MUNICIPALIDAD PROVINCIAL DE CHACHAPOYAS,01,AMAZONAS,01,CHACHAPOYAS,01,CHACHAPOYAS,59,9001,ACCIONES CENTRALES,3,3999999,SIN PRODUCTO,5000003,GESTION ADMINISTRATIVA,03,"PLANEAMIENTO, GESTION Y RESERVA DE CONTINGENCIA",006,GESTION,0008,ASESORAMIENTO Y APOYO,00001,0000886,"GERENCIAR RECURSOS MATERIALES, HUMANOS Y FINANCIEROS",01,AMAZONAS,2,RECURSOS DIRECTAMENTE RECAUDADOS,09,RECURSOS DIRECTAMENTE RECAUDADOS,0,NORMAL,5,GASTO CORRIENTE,2,3,BIENES Y SERVICIOS,2,CONTRATACION DE SERVICIOS,2,"SERVICIOS BASICOS, COMUNICACIONES, PUBLICIDAD Y DIFUSION",4,"SERVICIO DE PUBLICIDAD, IMPRESIONES,DIFUSION E IMAGEN INSTITUCIONAL",2,OTROS SERVICIOS DE PUBLICIDAD Y DIFUSION,26750,17050,0,0,0,0,0
82,83,2016,0,M,GOBIERNOS LOCALES,00,GOBIERNO LOCAL,000,MUNICIPALIDAD PROVINCIAL DE CHACHAPOYAS,300001,001,MUNICIPALIDAD PROVINCIAL DE CHACHAPOYAS,01,AMAZONAS,01,CHACHAPOYAS,01,CHACHAPOYAS,59,9001,ACCIONES CENTRALES,3,3999999,SIN PRODUCTO,5000003,GESTION ADMINISTRATIVA,03,"PLANEAMIENTO, GESTION Y RESERVA DE CONTINGENCIA",006,GESTION,0008,ASESORAMIENTO Y APOYO,00001,0000886,"GERENCIAR RECURSOS MATERIALES, HUMANOS Y FINANCIEROS",01,AMAZONAS,2,RECURSOS DIRECTAMENTE RECAUDADOS,09,RECURSOS DIRECTAMENTE RECAUDADOS,0,NORMAL,5,GASTO CORRIENTE,2,3,BIENES Y SERVICIOS,2,CONTRATACION DE SERVICIOS,2,"SERVICIOS BASICOS, COMUNICACIONES, PUBLICIDAD Y DIFUSION",4,"SERVICIO DE PUBLICIDAD, IMPRESIONES,DIFUSION E IMAGEN INSTITUCIONAL",4,"SERVICIO DE IMPRESIONES, ENCUADERNACION Y EMPASTADO",11200,11200,0,0,0,0,0
83,84,2016,0,M,GOBIERNOS LOCALES,00,GOBIERNO LOCAL,000,MUNICIPALIDAD PROVINCIAL DE CHACHAPOYAS,300001,001,MUNICIPALIDAD PROVINCIAL DE CHACHAPOYAS,01,AMAZONAS,01,CHACHAPOYAS,01,CHACHAPOYAS,59,9001,ACCIONES CENTRALES,3,3999999,SIN PRODUCTO,5000003,GESTION ADMINISTRATIVA,03,"PLANEAMIENTO, GESTION Y RESERVA DE CONTINGENCIA",006,GESTION,0008,ASESORAMIENTO Y APOYO,00001,0000886,"GERENCIAR RECURSOS MATERIALES, HUMANOS Y FINANCIEROS",01,AMAZONAS,2,RECURSOS DIRECTAMENTE RECAUDADOS,09,RECURSOS DIRECTAMENTE RECAUDADOS,0,NORMAL,5,GASTO CORRIENTE,2,3,BIENES Y SERVICIOS,2,CONTRATACION DE SERVICIOS,4,"SERVICIO DE MANTENIMIENTO, ACONDICIONAMIENTO Y  REPARACIONES",1,"SERVICIO DE MANTENIMIENTO, ACONDICIONAMIENTO Y  REPARACIONES",3,DE VEHICULOS,15412,14972,0,0,0,0,0
84,85,2016,0,M,GOBIERNOS LOCALES,00,GOBIERNO LOCAL,000,MUNICIPALIDAD PROVINCIAL DE CHACHAPOYAS,300001,001,MUNICIPALIDAD PROVINCIAL DE CHACHAPOYAS,01,AMAZONAS,01,CHACHAPOYAS,01,CHACHAPOYAS,59,9001,ACCIONES CENTRALES,3,3999999,SIN PRODUCTO,5000003,GESTION ADMINISTRATIVA,03,"PLANEAMIENTO, GESTION Y RESERVA DE CONTINGENCIA",006,GESTION,0008,ASESORAMIENTO Y APOYO,00001,0000886,"GERENCIAR RECURSOS MATERIALES, HUMANOS Y FINANCIEROS",01,AMAZONAS,2,RECURSOS DIRECTAMENTE RECAUDADOS,09,RECURSOS DIRECTAMENTE RECAUDADOS,0,NORMAL,5,GASTO CORRIENTE,2,3,BIENES Y SERVICIOS,2,CONTRATACION DE SERVICIOS,5,ALQUILERES DE MUEBLES E INMUEBLES,1,ALQUILERES DE MUEBLES E INMUEBLES,1,DE EDIFICIOS Y ESTRUCTURAS,0,54000,0,0,0,0,0
85,86,2016,0,M,GOBIERNOS LOCALES,00,GOBIERNO LOCAL,000,MUNICIPALIDAD PROVINCIAL DE CHACHAPOYAS,300001,001,MUNICIPALIDAD PROVINCIAL DE CHACHAPOYAS,01,AMAZONAS,01,CHACHAPOYAS,01,CHACHAPOYAS,59,9001,ACCIONES CENTRALES,3,3999999,SIN PRODUCTO,5000003,GESTION ADMINISTRATIVA,03,"PLANEAMIENTO, GESTION Y RESERVA DE CONTINGENCIA",006,GESTION,0008,ASESORAMIENTO Y APOYO,00001,0000886,"GERENCIAR RECURSOS MATERIALES, HUMANOS Y FINANCIEROS",01,AMAZONAS,2,RECURSOS DIRECTAMENTE RECAUDADOS,09,RECURSOS DIRECTAMENTE RECAUDADOS,0,NORMAL,5,GASTO CORRIENTE,2,3,BIENES Y SERVICIOS,2,CONTRATACION DE SERVICIOS,5,ALQUILERES DE MUEBLES E INMUEBLES,1,ALQUILERES DE MUEBLES E INMUEBLES,2,DE VEHICULOS,0,11000,0,0,0,0,0
86,87,2016,0,M,GOBIERNOS LOCALES,00,GOBIERNO LOCAL,000,MUNICIPALIDAD PROVINCIAL DE CHACHAPOYAS,300001,001,MUNICIPALIDAD PROVINCIAL DE CHACHAPOYAS,01,AMAZONAS,01,CHACHAPOYAS,01,CHACHAPOYAS,59,9001,ACCIONES CENTRALES,3,3999999,SIN PRODUCTO,5000003,GESTION ADMINISTRATIVA,03,"PLANEAMIENTO, GESTION Y RESERVA DE CONTINGENCIA",006,GESTION,0008,ASESORAMIENTO Y APOYO,00001,0000886,"GERENCIAR RECURSOS MATERIALES, HUMANOS Y FINANCIEROS",01,AMAZONAS,2,RECURSOS DIRECTAMENTE RECAUDADOS,09,RECURSOS DIRECTAMENTE RECAUDADOS,0,NORMAL,5,GASTO CORRIENTE,2,3,BIENES Y SERVICIOS,2,CONTRATACION DE SERVICIOS,6,"SERVICIOS ADMINISTRATIVOS, FINANCIEROS Y DE SEGUROS",1,SERVICIOS ADMINISTRATIVOS,2,GASTOS NOTARIALES,3830,3026,0,0,0,0,0
87,88,2016,0,M,GOBIERNOS LOCALES,00,GOBIERNO LOCAL,000,MUNICIPALIDAD PROVINCIAL DE CHACHAPOYAS,300001,001,MUNICIPALIDAD PROVINCIAL DE CHACHAPOYAS,01,AMAZONAS,01,CHACHAPOYAS,01,CHACHAPOYAS,59,9001,ACCIONES CENTRALES,3,3999999,SIN PRODUCTO,5000003,GESTION ADMINISTRATIVA,03,"PLANEAMIENTO, GESTION Y RESERVA DE CONTINGENCIA",006,GESTION,0008,ASESORAMIENTO Y APOYO,00001,0000886,"GERENCIAR RECURSOS MATERIALES, HUMANOS Y FINANCIEROS",01,AMAZONAS,2,RECURSOS DIRECTAMENTE RECAUDADOS,09,RECURSOS DIRECTAMENTE RECAUDADOS,0,NORMAL,5,GASTO CORRIENTE,2,3,BIENES Y SERVICIOS,2,CONTRATACION DE SERVICIOS,6,"SERVICIOS ADMINISTRATIVOS, FINANCIEROS Y DE SEGUROS",2,SERVICIOS FINANCIEROS,1,CARGOS BANCARIOS,1000,1804,0,0,0,0,0
88,89,2016,0,M,GOBIERNOS LOCALES,00,GOBIERNO LOCAL,000,MUNICIPALIDAD PROVINCIAL DE CHACHAPOYAS,300001,001,MUNICIPALIDAD PROVINCIAL DE CHACHAPOYAS,01,AMAZONAS,01,CHACHAPOYAS,01,CHACHAPOYAS,59,9001,ACCIONES CENTRALES,3,3999999,SIN PRODUCTO,5000003,GESTION ADMINISTRATIVA,03,"PLANEAMIENTO, GESTION Y RESERVA DE CONTINGENCIA",006,GESTION,0008,ASESORAMIENTO Y APOYO,00001,0000886,"GERENCIAR RECURSOS MATERIALES, HUMANOS Y FINANCIEROS",01,AMAZONAS,2,RECURSOS DIRECTAMENTE RECAUDADOS,09,RECURSOS DIRECTAMENTE RECAUDADOS,0,NORMAL,5,GASTO CORRIENTE,2,3,BIENES Y SERVICIOS,2,CONTRATACION DE SERVICIOS,7,SERVICIOS PROFESIONALES Y TECNICOS,5,"PRACTICANTES, SECIGRISTAS Y SIMILARES",2,PROPINAS PARA PRACTICANTES,5000,8500,0,0,0,0,0
89,90,2016,0,M,GOBIERNOS LOCALES,00,GOBIERNO LOCAL,000,MUNICIPALIDAD PROVINCIAL DE CHACHAPOYAS,300001,001,MUNICIPALIDAD PROVINCIAL DE CHACHAPOYAS,01,AMAZONAS,01,CHACHAPOYAS,01,CHACHAPOYAS,59,9001,ACCIONES CENTRALES,3,3999999,SIN PRODUCTO,5000003,GESTION ADMINISTRATIVA,03,"PLANEAMIENTO, GESTION Y RESERVA DE CONTINGENCIA",006,GESTION,0008,ASESORAMIENTO Y APOYO,00001,0000886,"GERENCIAR RECURSOS MATERIALES, HUMANOS Y FINANCIEROS",01,AMAZONAS,2,RECURSOS DIRECTAMENTE RECAUDADOS,09,RECURSOS DIRECTAMENTE RECAUDADOS,0,NORMAL,5,GASTO CORRIENTE,2,3,BIENES Y SERVICIOS,2,CONTRATACION DE SERVICIOS,7,SERVICIOS PROFESIONALES Y TECNICOS,8,SERVICIOS RELACIONADOS CON SANEAMIENTO,1,SERVICIOS RELACIONADOS CON EL TRATAMIENTO DE AGUA,98957,98957,0,0,0,0,0
90,91,2016,0,M,GOBIERNOS LOCALES,00,GOBIERNO LOCAL,000,MUNICIPALIDAD PROVINCIAL DE CHACHAPOYAS,300001,001,MUNICIPALIDAD PROVINCIAL DE CHACHAPOYAS,01,AMAZONAS,01,CHACHAPOYAS,01,CHACHAPOYAS,59,9001,ACCIONES CENTRALES,3,3999999,SIN PRODUCTO,5000003,GESTION ADMINISTRATIVA,03,"PLANEAMIENTO, GESTION Y RESERVA DE CONTINGENCIA",006,GESTION,0008,ASESORAMIENTO Y APOYO,00001,0000886,"GERENCIAR RECURSOS MATERIALES, HUMANOS Y FINANCIEROS",01,AMAZONAS,2,RECURSOS DIRECTAMENTE RECAUDADOS,09,RECURSOS DIRECTAMENTE RECAUDADOS,0,NORMAL,5,GASTO CORRIENTE,2,3,BIENES Y SERVICIOS,2,CONTRATACION DE SERVICIOS,7,SERVICIOS PROFESIONALES Y TECNICOS,11,OTROS SERVICIOS,99,SERVICIOS DIVERSOS,67196,477711,0,0,0,0,0
91,92,2016,0,M,GOBIERNOS LOCALES,00,GOBIERNO LOCAL,000,MUNICIPALIDAD PROVINCIAL DE CHACHAPOYAS,300001,001,MUNICIPALIDAD PROVINCIAL DE CHACHAPOYAS,01,AMAZONAS,01,CHACHAPOYAS,01,CHACHAPOYAS,59,9001,ACCIONES CENTRALES,3,3999999,SIN PRODUCTO,5000003,GESTION ADMINISTRATIVA,03,"PLANEAMIENTO, GESTION Y RESERVA DE CONTINGENCIA",006,GESTION,0008,ASESORAMIENTO Y APOYO,00001,0000886,"GERENCIAR RECURSOS MATERIALES, HUMANOS Y FINANCIEROS",01,AMAZONAS,2,RECURSOS DIRECTAMENTE RECAUDADOS,09,RECURSOS DIRECTAMENTE RECAUDADOS,0,NORMAL,5,GASTO CORRIENTE,2,3,BIENES Y SERVICIOS,2,CONTRATACION DE SERVICIOS,8,CONTRATO ADMINISTRATIVO DE SERVICIOS,1,CONTRATO ADMINISTRATIVO DE SERVICIOS,1,CONTRATO ADMINISTRATIVO DE SERVICIOS,0,87942,0,0,0,0,0
92,93,2016,0,M,GOBIERNOS LOCALES,00,GOBIERNO LOCAL,000,MUNICIPALIDAD PROVINCIAL DE CHACHAPOYAS,300001,001,MUNICIPALIDAD PROVINCIAL DE CHACHAPOYAS,01,AMAZONAS,01,CHACHAPOYAS,01,CHACHAPOYAS,59,9001,ACCIONES CENTRALES,3,3999999,SIN PRODUCTO,5000003,GESTION ADMINISTRATIVA,03,"PLANEAMIENTO, GESTION Y RESERVA DE CONTINGENCIA",006,GESTION,0008,ASESORAMIENTO Y APOYO,00001,0000886,"GERENCIAR RECURSOS MATERIALES, HUMANOS Y FINANCIEROS",01,AMAZONAS,2,RECURSOS DIRECTAMENTE RECAUDADOS,09,RECURSOS DIRECTAMENTE RECAUDADOS,0,NORMAL,5,GASTO CORRIENTE,2,3,BIENES Y SERVICIOS,2,CONTRATACION DE SERVICIOS,8,CONTRATO ADMINISTRATIVO DE SERVICIOS,1,CONTRATO ADMINISTRATIVO DE SERVICIOS,2,CONTRIBUCIONES A ESSALUD DE C.A.S.,0,12183,0,0,0,0,0
93,94,2016,0,M,GOBIERNOS LOCALES,00,GOBIERNO LOCAL,000,MUNICIPALIDAD PROVINCIAL DE CHACHAPOYAS,300001,001,MUNICIPALIDAD PROVINCIAL DE CHACHAPOYAS,01,AMAZONAS,01,CHACHAPOYAS,01,CHACHAPOYAS,59,9001,ACCIONES CENTRALES,3,3999999,SIN PRODUCTO,5000003,GESTION ADMINISTRATIVA,03,"PLANEAMIENTO, GESTION Y RESERVA DE CONTINGENCIA",006,GESTION,0008,ASESORAMIENTO Y APOYO,00001,0000886,"GERENCIAR RECURSOS MATERIALES, HUMANOS Y FINANCIEROS",01,AMAZONAS,2,RECURSOS DIRECTAMENTE RECAUDADOS,09,RECURSOS DIRECTAMENTE RECAUDADOS,0,NORMAL,5,GASTO CORRIENTE,2,4,DONACIONES Y TRANSFERENCIAS,1,DONACIONES Y TRANSFERENCIAS CORRIENTES,3,A OTRAS UNIDADES DEL GOBIERNO,1,A OTRAS UNIDADES DEL GOBIERNO,1,A OTRAS UNIDADES DEL GOBIERNO NACIONAL,5980,5980,0,0,0,0,0
94,95,2016,0,M,GOBIERNOS LOCALES,00,GOBIERNO LOCAL,000,MUNICIPALIDAD PROVINCIAL DE CHACHAPOYAS,300001,001,MUNICIPALIDAD PROVINCIAL DE CHACHAPOYAS,01,AMAZONAS,01,CHACHAPOYAS,01,CHACHAPOYAS,59,9001,ACCIONES CENTRALES,3,3999999,SIN PRODUCTO,5000003,GESTION ADMINISTRATIVA,03,"PLANEAMIENTO, GESTION Y RESERVA DE CONTINGENCIA",006,GESTION,0008,ASESORAMIENTO Y APOYO,00001,0000886,"GERENCIAR RECURSOS MATERIALES, HUMANOS Y FINANCIEROS",01,AMAZONAS,2,RECURSOS DIRECTAMENTE RECAUDADOS,09,RECURSOS DIRECTAMENTE RECAUDADOS,0,NORMAL,5,GASTO CORRIENTE,2,5,OTROS GASTOS,4,"PAGO DE IMPUESTOS,  DERECHOS ADMINISTRATIVOS Y MULTAS GUBERNAMENTALES",1,AL GOBIERNO NACIONAL,1,IMPUESTOS,1,IMPUESTOS,19000,17814,0,0,0,0,0
95,96,2016,0,M,GOBIERNOS LOCALES,00,GOBIERNO LOCAL,000,MUNICIPALIDAD PROVINCIAL DE CHACHAPOYAS,300001,001,MUNICIPALIDAD PROVINCIAL DE CHACHAPOYAS,01,AMAZONAS,01,CHACHAPOYAS,01,CHACHAPOYAS,59,9001,ACCIONES CENTRALES,3,3999999,SIN PRODUCTO,5000003,GESTION ADMINISTRATIVA,03,"PLANEAMIENTO, GESTION Y RESERVA DE CONTINGENCIA",006,GESTION,0008,ASESORAMIENTO Y APOYO,00001,0000886,"GERENCIAR RECURSOS MATERIALES, HUMANOS Y FINANCIEROS",01,AMAZONAS,2,RECURSOS DIRECTAMENTE RECAUDADOS,09,RECURSOS DIRECTAMENTE RECAUDADOS,0,NORMAL,5,GASTO CORRIENTE,2,5,OTROS GASTOS,4,"PAGO DE IMPUESTOS,  DERECHOS ADMINISTRATIVOS Y MULTAS GUBERNAMENTALES",1,AL GOBIERNO NACIONAL,3,MULTAS,1,MULTAS,3075,3075,0,0,0,0,0
96,97,2016,0,M,GOBIERNOS LOCALES,00,GOBIERNO LOCAL,000,MUNICIPALIDAD PROVINCIAL DE CHACHAPOYAS,300001,001,MUNICIPALIDAD PROVINCIAL DE CHACHAPOYAS,01,AMAZONAS,01,CHACHAPOYAS,01,CHACHAPOYAS,59,9001,ACCIONES CENTRALES,3,3999999,SIN PRODUCTO,5000003,GESTION ADMINISTRATIVA,03,"PLANEAMIENTO, GESTION Y RESERVA DE CONTINGENCIA",006,GESTION,0008,ASESORAMIENTO Y APOYO,00001,0000886,"GERENCIAR RECURSOS MATERIALES, HUMANOS Y FINANCIEROS",01,AMAZONAS,2,RECURSOS DIRECTAMENTE RECAUDADOS,09,RECURSOS DIRECTAMENTE RECAUDADOS,0,NORMAL,6,GASTO DE CAPITAL,2,6,ADQUISICION DE ACTIVOS NO FINANCIEROS,3,"ADQUISICION DE VEHICULOS, MAQUINARIAS Y OTROS",2,"ADQUISICION DE MAQUINARIAS, EQUIPO Y MOBILIARIO",3,ADQUISICION DE EQUIPOS INFORMATICOS Y DE COMUNICACIONES,1,EQUIPOS COMPUTACIONALES Y PERIFERICOS,0,1395,0,0,0,0,0
97,98,2016,0,M,GOBIERNOS LOCALES,00,GOBIERNO LOCAL,000,MUNICIPALIDAD PROVINCIAL DE CHACHAPOYAS,300001,001,MUNICIPALIDAD PROVINCIAL DE CHACHAPOYAS,01,AMAZONAS,01,CHACHAPOYAS,01,CHACHAPOYAS,59,9001,ACCIONES CENTRALES,3,3999999,SIN PRODUCTO,5000003,GESTION ADMINISTRATIVA,03,"PLANEAMIENTO, GESTION Y RESERVA DE CONTINGENCIA",006,GESTION,0008,ASESORAMIENTO Y APOYO,00001,0000886,"GERENCIAR RECURSOS MATERIALES, HUMANOS Y FINANCIEROS",01,AMAZONAS,4,DONACIONES Y TRANSFERENCIAS,13,DONACIONES Y TRANSFERENCIAS,0,NORMAL,5,GASTO CORRIENTE,2,3,BIENES Y SERVICIOS,1,COMPRA DE BIENES,99,COMPRA DE OTROS BIENES,1,COMPRA DE OTROS BIENES,99,OTROS BIENES,0,1324,0,0,0,0,0
98,99,2016,0,M,GOBIERNOS LOCALES,00,GOBIERNO LOCAL,000,MUNICIPALIDAD PROVINCIAL DE CHACHAPOYAS,300001,001,MUNICIPALIDAD PROVINCIAL DE CHACHAPOYAS,01,AMAZONAS,01,CHACHAPOYAS,01,CHACHAPOYAS,59,9001,ACCIONES CENTRALES,3,3999999,SIN PRODUCTO,5000003,GESTION ADMINISTRATIVA,03,"PLANEAMIENTO, GESTION Y RESERVA DE CONTINGENCIA",006,GESTION,0008,ASESORAMIENTO Y APOYO,00001,0000886,"GERENCIAR RECURSOS MATERIALES, HUMANOS Y FINANCIEROS",01,AMAZONAS,5,RECURSOS DETERMINADOS,07,FONDO DE COMPENSACION MUNICIPAL,0,NORMAL,5,GASTO CORRIENTE,2,1,PERSONAL Y OBLIGACIONES SOCIALES,1,RETRIBUCIONES Y COMPLEMENTOS EN EFECTIVO,1,PERSONAL ADMINISTRATIVO,1,PERSONAL ADMINISTRATIVO,2,PERSONAL ADMINISTRATIVO NOMBRADO (REGIMEN PUBLICO),30144,30144,0,0,0,0,0
99,100,2016,0,M,GOBIERNOS LOCALES,00,GOBIERNO LOCAL,000,MUNICIPALIDAD PROVINCIAL DE CHACHAPOYAS,300001,001,MUNICIPALIDAD PROVINCIAL DE CHACHAPOYAS,01,AMAZONAS,01,CHACHAPOYAS,01,CHACHAPOYAS,59,9001,ACCIONES CENTRALES,3,3999999,SIN PRODUCTO,5000003,GESTION ADMINISTRATIVA,03,"PLANEAMIENTO, GESTION Y RESERVA DE CONTINGENCIA",006,GESTION,0008,ASESORAMIENTO Y APOYO,00001,0000886,"GERENCIAR RECURSOS MATERIALES, HUMANOS Y FINANCIEROS",01,AMAZONAS,5,RECURSOS DETERMINADOS,07,FONDO DE COMPENSACION MUNICIPAL,0,NORMAL,5,GASTO CORRIENTE,2,1,PERSONAL Y OBLIGACIONES SOCIALES,1,RETRIBUCIONES Y COMPLEMENTOS EN EFECTIVO,1,PERSONAL ADMINISTRATIVO,1,PERSONAL ADMINISTRATIVO,3,PERSONAL CON CONTRATO A PLAZO FIJO (REGIMEN LABORAL PUBLICO),455736,342192,0,0,0,0,0
